\relax 
\providecommand\hyper@newdestlabel[2]{}
\providecommand\babel@aux[2]{}
\@nameuse{bbl@beforestart}
\catcode `:\active 
\catcode `;\active 
\catcode `!\active 
\catcode `?\active 
\providecommand\HyperFirstAtBeginDocument{\AtBeginDocument}
\HyperFirstAtBeginDocument{\ifx\hyper@anchor\@undefined
\global\let\oldcontentsline\contentsline
\gdef\contentsline#1#2#3#4{\oldcontentsline{#1}{#2}{#3}}
\global\let\oldnewlabel\newlabel
\gdef\newlabel#1#2{\newlabelxx{#1}#2}
\gdef\newlabelxx#1#2#3#4#5#6{\oldnewlabel{#1}{{#2}{#3}}}
\AtEndDocument{\ifx\hyper@anchor\@undefined
\let\contentsline\oldcontentsline
\let\newlabel\oldnewlabel
\fi}
\fi}
\global\let\hyper@last\relax 
\gdef\HyperFirstAtBeginDocument#1{#1}
\providecommand\HyField@AuxAddToFields[1]{}
\providecommand\HyField@AuxAddToCoFields[2]{}
\bibstyle{plain-fr}
\babel@aux{french}{}
\@writefile{toc}{\contentsline {section}{\numberline {1}Nouveaux éléments de code}{3}{section.1}\protected@file@percent }
\@writefile{toc}{\contentsline {subsection}{\numberline {1.1}Classe FullRenderable}{3}{subsection.1.1}\protected@file@percent }
\@writefile{lof}{\contentsline {figure}{\numberline {1}{\ignorespaces Attributs de la classe FullRenderable}}{3}{figure.1}\protected@file@percent }
\@writefile{toc}{\contentsline {subsection}{\numberline {1.2}Système de scène}{3}{subsection.1.2}\protected@file@percent }
\@writefile{lof}{\contentsline {figure}{\numberline {2}{\ignorespaces Signature de la méthode \textit  {\textbf  {loadAndStart}}}}{3}{figure.2}\protected@file@percent }
\@writefile{lof}{\contentsline {figure}{\numberline {3}{\ignorespaces Constantes correspondantes aux \textit  {shaders} utilisés}}{4}{figure.3}\protected@file@percent }
\@writefile{toc}{\contentsline {subsection}{\numberline {1.3}Factory}{4}{subsection.1.3}\protected@file@percent }
\@writefile{lof}{\contentsline {figure}{\numberline {4}{\ignorespaces Exemple de création et d'animation du poisson dans une Scene}}{4}{figure.4}\protected@file@percent }
\@writefile{lof}{\contentsline {figure}{\numberline {5}{\ignorespaces Fonction d'animation du twerk}}{4}{figure.5}\protected@file@percent }
\@writefile{lof}{\contentsline {figure}{\numberline {6}{\ignorespaces Instanciation du poisson dans la Factory}}{5}{figure.6}\protected@file@percent }
\@writefile{toc}{\contentsline {subsection}{\numberline {1.4}Animations de caméra}{5}{subsection.1.4}\protected@file@percent }
\@writefile{lof}{\contentsline {figure}{\numberline {7}{\ignorespaces Aperçu des différents mouvements de caméra créés}}{5}{figure.7}\protected@file@percent }
\@writefile{toc}{\contentsline {subsection}{\numberline {1.5}Classe TexturedCylinderRenderable}{6}{subsection.1.5}\protected@file@percent }
\@writefile{lof}{\contentsline {figure}{\numberline {8}{\ignorespaces Aperçu dans sa totalité du cylindre servant de ciel}}{6}{figure.8}\protected@file@percent }
\@writefile{toc}{\contentsline {section}{\numberline {2}Modifications structurales du code déjà existant}{7}{section.2}\protected@file@percent }
\@writefile{toc}{\contentsline {subsection}{\numberline {2.1}Système de callback}{7}{subsection.2.1}\protected@file@percent }
\@writefile{lof}{\contentsline {figure}{\numberline {9}{\ignorespaces Constructeur de Scene, hérité par chaque classe}}{7}{figure.9}\protected@file@percent }
\@writefile{lof}{\contentsline {figure}{\numberline {10}{\ignorespaces Méthode de callback dans le \texttt  {main.cpp}}}{7}{figure.10}\protected@file@percent }
\@writefile{lof}{\contentsline {figure}{\numberline {11}{\ignorespaces Fin de la méthode \textit  {\textbf  {loadAndStart}}, préparant le \textit  {callback} suivant}}{7}{figure.11}\protected@file@percent }
\@writefile{lof}{\contentsline {figure}{\numberline {12}{\ignorespaces Méthode \textit  {\textbf  {enableCallback()}}, définie dans Scene.hpp}}{7}{figure.12}\protected@file@percent }
\@writefile{lof}{\contentsline {figure}{\numberline {13}{\ignorespaces Implémentation de CallBack dans notre projet}}{8}{figure.13}\protected@file@percent }
\@writefile{lof}{\contentsline {figure}{\numberline {14}{\ignorespaces Classe abstraite CallBack, définie dans la pipeline}}{8}{figure.14}\protected@file@percent }
\@writefile{lof}{\contentsline {figure}{\numberline {15}{\ignorespaces Attributs ajoutés à la classe Viewer}}{8}{figure.15}\protected@file@percent }
\@writefile{lof}{\contentsline {figure}{\numberline {16}{\ignorespaces Corps de la méthode \textit  {\textbf  {setCallBack(CallBack*, float)}} ajoutée à la classe Viewer}}{8}{figure.16}\protected@file@percent }
\@writefile{lof}{\contentsline {figure}{\numberline {17}{\ignorespaces Corps de la méthode \textit  {\textbf  {testCallBack()}} ajoutée à la classe Viewer}}{9}{figure.17}\protected@file@percent }
\newlabel{fig:testCallBack}{{17}{9}{Corps de la méthode \textit {\textbf {testCallBack()}} ajoutée à la classe Viewer}{figure.17}{}}
\@writefile{lof}{\contentsline {figure}{\numberline {18}{\ignorespaces Boucle principale d'animation du \textit  {\textbf  {main}}}}{9}{figure.18}\protected@file@percent }
\newlabel{fig:testCallBackMain}{{18}{9}{Boucle principale d'animation du \textit {\textbf {main}}}{figure.18}{}}
\@writefile{toc}{\contentsline {subsection}{\numberline {2.2}Problèmes liés au système de CallBack}{9}{subsection.2.2}\protected@file@percent }
\@writefile{lof}{\contentsline {figure}{\numberline {19}{\ignorespaces Méthode \textit  {\textbf  {animate()}} de Viewer, appelée par la boucle du \textit  {\textbf  {main}}}}{9}{figure.19}\protected@file@percent }
\@writefile{toc}{\contentsline {section}{\numberline {3}Shaders}{10}{section.3}\protected@file@percent }
\@writefile{toc}{\contentsline {subsection}{\numberline {3.1}Bulles}{10}{subsection.3.1}\protected@file@percent }
\@writefile{lof}{\contentsline {figure}{\numberline {20}{\ignorespaces Aperçu des bulles produites par le sous-marin}}{10}{figure.20}\protected@file@percent }
\@writefile{toc}{\contentsline {subsection}{\numberline {3.2}Eau}{10}{subsection.3.2}\protected@file@percent }
\@writefile{lof}{\contentsline {figure}{\numberline {21}{\ignorespaces Aperçu de l'eau comme il est vu dans l'animation}}{11}{figure.21}\protected@file@percent }
\@writefile{toc}{\contentsline {section}{\numberline {4}Modèles}{12}{section.4}\protected@file@percent }
\@writefile{toc}{\contentsline {subsection}{\numberline {4.1}Le sous-marin}{12}{subsection.4.1}\protected@file@percent }
\@writefile{lof}{\contentsline {figure}{\numberline {22}{\ignorespaces Sous-marin sous Blender}}{12}{figure.22}\protected@file@percent }
\@writefile{lof}{\contentsline {figure}{\numberline {23}{\ignorespaces Test d'application de textures sous Substance Painter}}{12}{figure.23}\protected@file@percent }
\@writefile{toc}{\contentsline {subsection}{\numberline {4.2}Le poisson}{13}{subsection.4.2}\protected@file@percent }
\@writefile{lof}{\contentsline {figure}{\numberline {24}{\ignorespaces Poisson sous Blender}}{13}{figure.24}\protected@file@percent }
\@writefile{lof}{\contentsline {figure}{\numberline {25}{\ignorespaces Poisson sous Blender}}{13}{figure.25}\protected@file@percent }
\@writefile{toc}{\contentsline {subsection}{\numberline {4.3}Le temple}{14}{subsection.4.3}\protected@file@percent }
\@writefile{lof}{\contentsline {figure}{\numberline {26}{\ignorespaces Temple sous Blender}}{14}{figure.26}\protected@file@percent }
\@writefile{toc}{\contentsline {section}{\numberline {5}Manuel utilisateur}{15}{section.5}\protected@file@percent }
\@writefile{toc}{\contentsline {section}{\numberline {6}Notes additionnelles}{16}{section.6}\protected@file@percent }
\gdef \@abspage@last{16}
