# Blender v2.93.4 OBJ File: 'submarineKai4.blend'
# www.blender.org
mtllib Periscope.mtl
o Torus.005
v 0.000000 -0.352376 4.993929
v -0.254558 -0.246934 4.993929
v -0.360000 0.007624 4.993929
v -0.254558 0.262183 4.993929
v 0.000000 0.367624 4.993929
v 0.254558 0.262183 4.993929
v 0.360000 0.007624 4.993929
v 0.254558 -0.246934 4.993929
v -0.000000 -0.183568 5.623928
v -0.254558 -0.092253 5.571208
v -0.360000 0.128201 5.443929
v -0.254558 0.348655 5.316650
v -0.000000 0.439971 5.263928
v 0.254558 0.348655 5.316650
v 0.360000 0.128201 5.443929
v 0.254558 -0.092253 5.571208
v -0.000000 0.277624 6.085121
v -0.254559 0.330345 5.993806
v -0.360000 0.457624 5.773352
v -0.254558 0.584904 5.552897
v -0.000000 0.637624 5.461582
v 0.254558 0.584904 5.552897
v 0.360000 0.457624 5.773352
v 0.254558 0.330345 5.993806
v -0.000000 0.891256 6.445043
v -0.389697 0.891256 6.283625
v -0.551115 0.891256 5.893929
v -0.389697 0.891256 5.504232
v -0.000000 0.891256 5.342814
v 0.389697 0.891256 5.504232
v 0.551115 0.891256 5.893929
v 0.389697 0.891256 6.283625
v 0.254559 -0.246934 4.312136
v 0.360000 0.007624 4.312136
v 0.254559 0.262183 4.312136
v 0.000000 0.367624 4.312136
v -0.254558 0.262183 4.312136
v -0.360000 0.007624 4.312136
v -0.254558 -0.246934 4.312136
v 0.000000 -0.352376 4.312136
v -0.000000 1.657474 6.361473
v -0.319683 1.542828 6.164722
v -0.452100 1.306297 5.893929
v -0.319683 1.306298 5.574246
v -0.000000 1.306298 5.441829
v 0.319683 1.306298 5.574246
v 0.452099 1.306297 5.893929
v 0.319683 1.542828 6.164722
v -0.000000 1.657474 6.460488
v -0.389697 1.452102 6.234737
v -0.551115 1.228694 5.893929
v -0.389697 1.209605 5.504232
v -0.000000 1.209605 5.342814
v 0.389697 1.209605 5.504232
v 0.551115 1.228694 5.893929
v 0.389697 1.452102 6.234737
v -0.000000 1.173801 6.104495
v -0.148893 1.173801 6.042821
v -0.210566 1.173801 5.893929
v -0.148893 1.173801 5.745037
v -0.000000 1.173801 5.683363
v 0.148892 1.173801 5.745037
v 0.210566 1.173801 5.893929
v 0.148892 1.173801 6.042821
v -0.000000 1.222407 5.893928
v -0.000000 1.013248 6.346028
v -0.319683 1.013248 6.213612
v -0.452100 1.013248 5.893929
v -0.319683 1.013248 5.574246
v -0.000000 1.013248 5.441829
v 0.319683 1.013248 5.574246
v 0.452099 1.013248 5.893929
v 0.319683 1.013248 6.213612
vt 0.750000 0.455084
vt 0.750000 0.557626
vt 0.750000 0.625000
vt 0.750000 0.500000
vt 0.750000 0.660168
vt 0.750000 0.762710
vt 0.750000 0.875000
vt 0.750000 0.750000
vt 0.750000 0.044916
vt 0.750000 0.147458
vt 0.750000 0.125000
vt 0.750000 0.000000
vt 0.750000 0.250000
vt 0.750000 0.352542
vt 0.750000 0.375000
vt 0.750000 0.250000
vt 0.750000 0.352542
vt 0.750000 0.455084
vt 0.750000 0.147458
vt 0.750000 0.250000
vt 0.750000 0.762710
vt 0.750000 0.044916
vt 0.750000 0.557626
vt 0.750000 0.660168
vt 0.500000 0.500000
vt 0.583333 0.500000
vt 0.583333 0.625000
vt 0.500000 0.625000
vt 0.583333 0.750000
vt 0.500000 0.750000
vt 0.583333 0.875000
vt 0.500000 0.875000
vt 0.583333 1.000000
vt 0.500000 1.000000
vt 0.500000 0.000000
vt 0.583333 0.000000
vt 0.583333 0.125000
vt 0.500000 0.125000
vt 0.583333 0.250000
vt 0.500000 0.250000
vt 0.583333 0.375000
vt 0.500000 0.375000
vt 0.666667 0.500000
vt 0.666667 0.625000
vt 0.666667 0.750000
vt 0.666667 0.875000
vt 0.666667 1.000000
vt 0.666667 0.000000
vt 0.666667 0.125000
vt 0.666667 0.250000
vt 0.666667 0.375000
vt 0.750000 0.500000
vt 0.750000 0.625000
vt 0.750000 0.750000
vt 0.750000 0.875000
vt 0.750000 1.000000
vt 0.750000 0.000000
vt 0.750000 0.125000
vt 0.750000 0.250000
vt 0.750000 0.375000
vt 0.500000 0.500000
vt 0.500000 0.375000
vt 0.500000 0.875000
vt 0.500000 0.750000
vt 0.500000 0.250000
vt 0.500000 0.625000
vt 0.500000 0.125000
vt 0.500000 0.000000
vt 0.500000 1.000000
vt 0.750000 0.250000
vt 0.750000 0.213128
vt 0.750000 0.250000
vt 0.750000 1.000000
vt 0.750000 0.286872
vt 0.750000 0.434359
vt 0.750000 0.397487
vt 0.750000 0.176256
vt 0.750000 0.360616
vt 0.750000 0.323744
vn -0.5115 0.8273 0.2322
vn -0.6303 0.7239 -0.2805
vn 0.2780 0.6872 -0.6711
vn 0.7284 0.6680 -0.1524
vn -0.7284 0.6680 -0.1524
vn -0.2780 0.6872 -0.6711
vn 0.6303 0.7239 -0.2805
vn 0.5115 0.8273 0.2322
vn -0.4612 -0.0253 -0.8870
vn -0.9239 0.0000 0.3827
vn 0.3827 0.0000 0.9239
vn 0.9157 -0.0238 -0.4011
vn 0.4612 -0.0253 -0.8870
vn 0.9239 0.0000 0.3827
vn -0.3827 0.0000 0.9239
vn -0.9157 -0.0238 -0.4011
vn 0.0000 -0.9919 0.1266
vn 0.0000 -0.8660 0.5000
vn -0.6768 -0.6375 0.3681
vn -0.6894 -0.7180 0.0950
vn -0.9980 -0.0550 0.0318
vn -0.9995 -0.0317 0.0085
vn -0.7402 0.5823 -0.3362
vn -0.7211 0.6868 -0.0910
vn 0.0000 0.8660 -0.5000
vn 0.0000 0.9908 -0.1348
vn 0.7402 0.5823 -0.3362
vn 0.7211 0.6868 -0.0910
vn 0.9980 -0.0550 0.0318
vn 0.9995 -0.0317 0.0085
vn 0.6768 -0.6375 0.3681
vn 0.6894 -0.7180 0.0950
vn 0.0000 -0.6130 0.7901
vn -0.6446 -0.5045 0.5744
vn -0.9717 -0.2358 0.0082
vn -0.7528 0.0414 -0.6570
vn 0.0000 0.1609 -0.9869
vn 0.7528 0.0414 -0.6570
vn 0.9717 -0.2358 0.0082
vn 0.6446 -0.5045 0.5744
vn 0.0000 -0.2433 0.9699
vn -0.6962 -0.2218 0.6827
vn -0.9820 -0.1889 -0.0009
vn -0.6905 -0.1729 -0.7024
vn 0.0000 -0.1755 -0.9845
vn 0.6905 -0.1729 -0.7024
vn 0.9820 -0.1889 -0.0009
vn 0.6962 -0.2218 0.6827
vn 0.0000 -0.7764 -0.6302
vn 0.5490 -0.5490 -0.6302
vn -0.5490 0.5490 -0.6302
vn -0.7764 0.0000 -0.6302
vn 0.7764 0.0000 -0.6302
vn -0.5490 -0.5490 -0.6302
vn 0.5490 0.5490 -0.6302
vn 0.0000 0.7764 -0.6302
vn 0.0000 0.5932 0.8050
vn -0.7728 0.4415 0.4560
vn 0.4318 0.9019 0.0000
vn 0.3054 0.9019 -0.3054
vn 0.0000 1.0000 0.0000
vn -0.9481 0.3140 -0.0487
vn -0.6545 0.3630 -0.6632
vn 0.0000 0.3579 -0.9337
vn 0.6545 0.3630 -0.6632
vn 0.7728 0.4415 0.4560
vn 0.9481 0.3140 -0.0487
vn 0.3054 0.9019 0.3054
vn -0.3054 0.9019 -0.3054
vn -0.4318 0.9019 0.0000
vn 0.0000 0.9019 -0.4318
vn -0.3054 0.9019 0.3054
vn 0.0000 0.9019 0.4318
vn -0.6138 0.7893 -0.0115
vn -0.4313 0.7925 0.4313
vn 0.0000 0.7925 0.6099
vn 0.4313 0.7925 0.4313
vn 0.6138 0.7893 -0.0115
vn 0.4597 0.7784 -0.4274
vn 0.0000 0.8000 -0.5999
vn -0.4597 0.7784 -0.4274
usemtl None
s off
f 41/1/1 42/2/1 50/3/1 49/4/1
f 43/5/2 44/6/2 52/7/2 51/8/2
f 45/9/3 46/10/3 54/11/3 53/12/3
f 47/13/4 48/14/4 56/15/4 55/16/4
f 42/2/5 43/5/5 51/8/5 50/3/5
f 44/6/6 45/9/6 53/12/6 52/7/6
f 46/10/7 47/13/7 55/16/7 54/11/7
f 48/14/8 41/1/8 49/4/8 56/15/8
f 41/1/9 48/14/9 73/17/9 66/18/9
f 47/13/10 46/10/10 71/19/10 72/20/10
f 45/9/11 44/6/11 69/21/11 70/22/11
f 43/5/12 42/2/12 67/23/12 68/24/12
f 42/2/13 41/1/13 66/18/13 67/23/13
f 44/6/14 43/5/14 68/24/14 69/21/14
f 46/10/15 45/9/15 70/22/15 71/19/15
f 48/14/16 47/13/16 72/20/16 73/17/16
s 1
f 1/25/17 9/26/18 10/27/19 2/28/20
f 2/28/20 10/27/19 11/29/21 3/30/22
f 3/30/22 11/29/21 12/31/23 4/32/24
f 4/32/24 12/31/23 13/33/25 5/34/26
f 5/35/26 13/36/25 14/37/27 6/38/28
f 6/38/28 14/37/27 15/39/29 7/40/30
f 7/40/30 15/39/29 16/41/31 8/42/32
f 8/42/32 16/41/31 9/26/18 1/25/17
f 9/26/18 17/43/33 18/44/34 10/27/19
f 10/27/19 18/44/34 19/45/35 11/29/21
f 11/29/21 19/45/35 20/46/36 12/31/23
f 12/31/23 20/46/36 21/47/37 13/33/25
f 13/36/25 21/48/37 22/49/38 14/37/27
f 14/37/27 22/49/38 23/50/39 15/39/29
f 15/39/29 23/50/39 24/51/40 16/41/31
f 16/41/31 24/51/40 17/43/33 9/26/18
f 17/43/33 25/52/41 26/53/42 18/44/34
f 18/44/34 26/53/42 27/54/43 19/45/35
f 19/45/35 27/54/43 28/55/44 20/46/36
f 20/46/36 28/55/44 29/56/45 21/47/37
f 21/48/37 29/57/45 30/58/46 22/49/38
f 22/49/38 30/58/46 31/59/47 23/50/39
f 23/50/39 31/59/47 32/60/48 24/51/40
f 24/51/40 32/60/48 25/52/41 17/43/33
f 8/42/32 1/25/17 40/61/49 33/62/50
f 3/30/22 4/32/24 37/63/51 38/64/52
f 7/40/30 8/42/32 33/62/50 34/65/53
f 2/28/20 3/30/22 38/64/52 39/66/54
f 6/38/28 7/40/30 34/65/53 35/67/55
f 1/25/17 2/28/20 39/66/54 40/61/49
f 5/35/26 6/38/28 35/67/55 36/68/56
f 40/61/49 39/66/54 38/64/52 37/63/51 36/68/56 35/67/55 34/65/53 33/62/50
f 4/32/24 5/34/26 36/69/56 37/63/51
f 26/53/42 25/52/41 49/4/57 50/3/58
f 63/70/59 62/71/60 65/72/61
f 28/55/44 27/54/43 51/8/62 52/7/63
f 30/58/46 29/57/45 53/12/64 54/11/65
f 25/52/41 32/60/48 56/15/66 49/4/57
f 32/60/48 31/59/47 55/16/67 56/15/66
f 27/54/43 26/53/42 50/3/58 51/8/62
f 29/56/45 28/55/44 52/7/63 53/73/64
f 31/59/47 30/58/46 54/11/65 55/16/67
f 65/72/61 64/74/68 63/70/59
f 65/72/61 60/75/69 59/76/70
f 65/72/61 62/71/60 61/77/71
f 65/72/61 58/78/72 57/79/73
f 61/77/71 60/75/69 65/72/61
f 57/79/73 64/74/68 65/72/61
f 59/76/70 58/78/72 65/72/61
f 63/70/59 72/20/74 71/19/75 62/71/60
f 62/71/60 71/19/75 70/22/76 61/77/71
f 61/77/71 70/22/76 69/21/77 60/75/69
f 60/75/69 69/21/77 68/24/78 59/76/70
f 59/76/70 68/24/78 67/23/79 58/78/72
f 58/78/72 67/23/79 66/18/80 57/79/73
f 64/74/68 57/79/73 66/18/80 73/17/81
f 64/74/68 73/17/81 72/20/74 63/70/59
