# Blender v2.93.5 OBJ File: 'la mer ta mère.blend'
# www.blender.org
mtllib algue.mtl
o Algue_Sphere
v -0.123581 1.048394 -0.085630
v -0.116761 0.954637 -0.078011
v -0.107843 0.878523 -0.074985
v -0.095640 0.802570 -0.072288
v -0.081359 0.725628 -0.067247
v -0.066254 0.649588 -0.060853
v -0.050901 0.577267 -0.052816
v 0.003104 0.295271 -0.030132
v 0.016988 0.218775 -0.042356
v 0.030706 0.136460 -0.052313
v -0.118403 1.049672 -0.084720
v -0.109340 0.957062 -0.075329
v -0.099516 0.880103 -0.071307
v -0.085951 0.803952 -0.067595
v -0.069866 0.727190 -0.061559
v -0.052871 0.651349 -0.054424
v -0.035905 0.578804 -0.046173
v -0.020292 0.509845 -0.037229
v -0.005313 0.440089 -0.029236
v 0.007737 0.369908 -0.023217
v 0.020891 0.297172 -0.024157
v 0.035150 0.221764 -0.035332
v 0.047180 0.141869 -0.045713
v 0.038284 0.047343 -0.038297
v 0.012954 -0.032690 -0.014619
v -0.112998 1.052240 -0.083625
v -0.101814 0.960844 -0.072702
v -0.091174 0.883588 -0.067569
v -0.076366 0.807414 -0.062883
v -0.058652 0.731073 -0.055970
v -0.039952 0.655516 -0.048307
v -0.021611 0.583001 -0.039984
v -0.004935 0.513448 -0.031434
v 0.011001 0.443575 -0.023746
v 0.024212 0.373608 -0.017792
v 0.037744 0.301575 -0.017747
v 0.052072 0.227386 -0.026477
v 0.063872 0.149919 -0.036241
v 0.049524 0.053219 -0.032398
v 0.020723 -0.030034 -0.012865
v -0.107508 1.054904 -0.082489
v -0.094400 0.965555 -0.070248
v -0.082983 0.888307 -0.064014
v -0.067088 0.812360 -0.058416
v -0.047975 0.736602 -0.050781
v -0.027794 0.661443 -0.042766
v -0.008437 0.589158 -0.034484
v 0.009222 0.519079 -0.026274
v 0.025870 0.449119 -0.018834
v 0.039233 0.379221 -0.012771
v 0.053004 0.307862 -0.011354
v 0.067312 0.234966 -0.016924
v 0.079989 0.160186 -0.024665
v 0.060570 0.060334 -0.025036
v 0.027795 -0.026162 -0.009878
v -0.102338 1.058169 -0.081265
v -0.087286 0.970770 -0.068035
v -0.075123 0.893854 -0.060756
v -0.058313 0.818340 -0.054318
v -0.038070 0.743286 -0.046091
v -0.016743 0.668716 -0.037817
v 0.003253 0.596700 -0.029609
v 0.021754 0.526179 -0.021644
v 0.038883 0.456099 -0.014364
v 0.052293 0.386136 -0.008079
v 0.066130 0.315244 -0.005189
v 0.080366 0.243306 -0.007587
v 0.094131 0.170540 -0.012550
v 0.070914 0.068201 -0.016564
v 0.034321 -0.020985 -0.006029
v -0.097378 1.061298 -0.080064
v -0.080667 0.976334 -0.066065
v -0.067762 0.899953 -0.057832
v -0.050214 0.825010 -0.050624
v -0.029115 0.750711 -0.041892
v -0.006922 0.676757 -0.033383
v 0.013288 0.605073 -0.025193
v 0.032343 0.534273 -0.017339
v 0.049648 0.464035 -0.010097
v 0.062975 0.393818 -0.003561
v 0.076659 0.323028 0.000703
v 0.090574 0.251331 0.001097
v 0.104536 0.178832 -0.001243
v 0.080065 0.076220 -0.007473
v 0.040064 -0.014853 -0.001549
v -0.092952 1.064769 -0.078837
v -0.074699 0.982147 -0.064308
v -0.061023 0.906394 -0.055227
v -0.042949 0.832128 -0.047317
v -0.021294 0.758608 -0.038129
v 0.001404 0.685331 -0.029341
v 0.021499 0.613936 -0.021076
v 0.040791 0.542980 -0.013170
v 0.057961 0.472536 -0.005862
v 0.071114 0.401893 0.000885
v 0.084426 0.330875 0.006312
v 0.097750 0.258867 0.009059
v 0.111305 0.185641 0.009021
v 0.087574 0.084001 0.001761
v 0.044801 -0.008194 0.003304
v -0.089020 1.068496 -0.077587
v -0.069384 0.988069 -0.062707
v -0.055092 0.913122 -0.052907
v -0.036673 0.839529 -0.044356
v -0.014750 0.766767 -0.034728
v 0.008141 0.694163 -0.025582
v 0.027862 0.623001 -0.017134
v 0.047022 0.552003 -0.009039
v 0.063790 0.481313 -0.001619
v 0.076652 0.410130 0.005262
v 0.089416 0.338671 0.011572
v 0.101934 0.266120 0.016274
v 0.114520 0.191965 0.018366
v 0.093469 0.091983 0.011006
v 0.048428 -0.001307 0.008310
v -0.085648 1.072531 -0.076301
v -0.064961 0.994201 -0.061213
v -0.050005 0.919988 -0.050814
v -0.031488 0.847072 -0.041699
v -0.009616 0.775031 -0.031629
v 0.013135 0.703087 -0.022040
v 0.032219 0.632110 -0.013337
v 0.051041 0.561113 -0.004971
v 0.067242 0.490151 0.002565
v 0.079736 0.418376 0.009460
v 0.091848 0.346372 0.016347
v 0.103419 0.273247 0.022613
v 0.114766 0.198302 0.026697
v 0.097637 0.100586 0.020177
v 0.050999 0.005688 0.013331
v -0.082828 1.076849 -0.074964
v -0.061323 1.000392 -0.059769
v -0.045917 0.926949 -0.048909
v -0.027487 0.854649 -0.039305
v -0.005975 0.783266 -0.028819
v 0.016313 0.711945 -0.018729
v 0.034715 0.641079 -0.009731
v 0.052958 0.570123 -0.001047
v 0.068475 0.498865 0.006525
v 0.080544 0.426480 0.013294
v 0.091882 0.353836 0.020446
v 0.102571 0.280249 0.027917
v 0.112594 0.205023 0.033874
v 0.099955 0.112221 0.029600
v 0.053323 0.013233 0.018524
v -0.080678 1.081449 -0.073565
v -0.058688 1.006657 -0.058346
v -0.042935 0.933926 -0.047165
v -0.024719 0.862159 -0.037147
v -0.003876 0.791349 -0.026317
v 0.017669 0.720583 -0.015723
v 0.035260 0.649772 -0.006412
v 0.052808 0.578848 0.002550
v 0.067645 0.507280 0.010061
v 0.079286 0.434284 0.016595
v 0.089913 0.360925 0.023744
v 0.099813 0.286735 0.032048
v 0.108861 0.210663 0.039580
v 0.100762 0.117933 0.036999
v 0.052627 0.018845 0.022641
v -0.079285 1.086231 -0.072111
v -0.057078 1.012889 -0.056914
v -0.040964 0.940825 -0.045535
v -0.023509 0.869535 -0.035283
v -0.003384 0.799170 -0.024169
v 0.017226 0.728856 -0.013125
v 0.034018 0.658064 -0.003531
v 0.050807 0.587144 0.005610
v 0.064880 0.515225 0.012988
v 0.076104 0.441611 0.019163
v 0.086041 0.367448 0.026083
v 0.095347 0.292769 0.034942
v 0.103543 0.216563 0.043982
v 0.099145 0.128428 0.044482
v 0.052367 0.025263 0.027000
v -0.078923 1.091119 -0.070596
v -0.056668 1.019019 -0.055455
v -0.040383 0.947587 -0.044061
v -0.023721 0.876643 -0.033713
v -0.004387 0.806618 -0.022435
v 0.015077 0.736633 -0.011089
v 0.031019 0.665810 -0.001314
v 0.046769 0.594749 0.007845
v 0.060271 0.522524 0.015078
v 0.071148 0.448290 0.020817
v 0.080546 0.373247 0.027378
v 0.089386 0.297821 0.036551
v 0.097056 0.220577 0.046843
v 0.095671 0.131670 0.049147
v 0.049188 0.028962 0.029625
v -0.080064 1.096071 -0.068945
v -0.057667 1.024990 -0.053953
v -0.041283 0.954124 -0.042755
v -0.025338 0.883414 -0.032492
v -0.007154 0.813578 -0.021320
v 0.011272 0.743811 -0.009804
v 0.026420 0.672937 0.000066
v 0.041125 0.601667 0.009151
v 0.054091 0.529134 0.016184
v 0.064547 0.454200 0.021429
v 0.073543 0.378251 0.027562
v 0.081964 0.302005 0.036876
v 0.089157 0.223912 0.048302
v 0.089758 0.135806 0.052540
v 0.045608 0.032308 0.031807
v -0.083102 1.100959 -0.067065
v -0.060264 1.030723 -0.052400
v -0.043849 0.960332 -0.041683
v -0.028601 0.889733 -0.031783
v -0.011326 0.819991 -0.020840
v 0.005938 0.750306 -0.009408
v 0.020314 0.679361 0.000445
v 0.034005 0.607815 0.009355
v 0.046280 0.534795 0.016071
v 0.056472 0.459276 0.020943
v 0.065170 0.382413 0.026645
v 0.073236 0.305305 0.036000
v 0.080025 0.226366 0.048446
v 0.081789 0.138317 0.054071
v 0.041152 0.034762 0.033175
v -0.088081 1.105563 -0.064945
v -0.064586 1.036125 -0.050814
v -0.048152 0.966119 -0.040919
v -0.033330 0.895568 -0.031630
v -0.017191 0.825704 -0.021272
v -0.000875 0.756030 -0.010073
v 0.012808 0.685005 -0.000326
v 0.025585 0.613143 0.008332
v 0.037291 0.539742 0.014872
v 0.047095 0.463488 0.019384
v 0.055560 0.385696 0.024718
v 0.063298 0.307628 0.034046
v 0.069585 0.227505 0.047285
v 0.072097 0.138805 0.053736
v 0.035862 0.036058 0.033614
v -0.094706 1.109752 -0.062778
v -0.070739 1.041154 -0.049287
v -0.054307 0.971415 -0.040606
v -0.039689 0.900804 -0.032236
v -0.024412 0.830701 -0.022642
v -0.008954 0.760945 -0.011865
v 0.004022 0.689793 -0.002345
v 0.016012 0.617617 0.006066
v 0.027046 0.543679 0.012438
v 0.036597 0.466851 0.016846
v 0.044881 0.388129 0.021936
v 0.052366 0.309084 0.031242
v 0.058303 0.227813 0.045192
v 0.061123 0.137509 0.051792
v 0.029911 0.036161 0.033153
v -0.102876 1.113747 -0.060865
v -0.078873 1.045951 -0.047980
v -0.062365 0.976254 -0.040902
v -0.047606 0.905418 -0.033709
v -0.032928 0.834913 -0.025032
v -0.018389 0.764867 -0.014946
v -0.005922 0.693625 -0.005634
v 0.005382 0.621174 0.002631
v 0.015864 0.546824 0.009018
v 0.025117 0.469349 0.013482
v 0.033279 0.389726 0.018512
v 0.040593 0.309709 0.027824
v 0.046201 0.227103 0.042242
v 0.049356 0.134854 0.048567
v 0.023501 0.035170 0.031900
v -0.112242 1.119026 -0.059502
v -0.089145 1.051047 -0.047072
v -0.072375 0.980779 -0.041966
v -0.057071 0.909351 -0.036154
v -0.042761 0.838162 -0.028513
v -0.028892 0.767748 -0.019138
v -0.016960 0.696337 -0.010117
v -0.006235 0.623692 -0.001842
v 0.003762 0.549040 0.004771
v 0.012742 0.470920 0.009519
v 0.020893 0.390478 0.014702
v 0.028206 0.309654 0.024086
v 0.033739 0.225973 0.038803
v 0.037312 0.131349 0.044391
v 0.016830 0.033266 0.030001
v -0.122992 1.128567 -0.058601
v -0.102021 1.057185 -0.046737
v -0.084390 0.985076 -0.043936
v -0.068082 0.912432 -0.039612
v -0.053838 0.840237 -0.033000
v -0.040604 0.769223 -0.024410
v -0.029078 0.697665 -0.015580
v -0.018810 0.624954 -0.007148
v -0.009249 0.550134 -0.000071
v -0.000446 0.471393 0.005191
v 0.007892 0.390302 0.010748
v 0.015428 0.308896 0.020242
v 0.021185 0.224513 0.034997
v 0.025481 0.127322 0.039458
v 0.010093 0.030621 0.027577
v -0.135914 1.147456 -0.057519
v -0.118007 1.064507 -0.047297
v -0.098610 0.988747 -0.047127
v -0.080663 0.914159 -0.044092
v -0.066170 0.840657 -0.038392
v -0.053403 0.768966 -0.030429
v -0.042274 0.697234 -0.021724
v -0.032361 0.624615 -0.012984
v -0.023132 0.549802 -0.005264
v -0.014314 0.470513 0.000729
v -0.005512 0.388956 0.006816
v 0.002535 0.307212 0.016399
v 0.008883 0.222591 0.030818
v 0.014332 0.122673 0.033705
v 0.003501 0.027297 0.024669
v -0.150331 1.167859 -0.056871
v -0.136837 1.069984 -0.050651
v -0.114306 0.990366 -0.051720
v -0.094521 0.913618 -0.049457
v -0.079583 0.838790 -0.044443
v -0.067203 0.766448 -0.036912
v -0.056461 0.694579 -0.028201
v -0.046839 0.622208 -0.019023
v -0.037790 0.547530 -0.010556
v -0.028628 0.467867 -0.003699
v -0.019005 0.386061 0.002970
v -0.010102 0.304127 0.012516
v -0.002698 0.219654 0.026058
v 0.004467 0.116654 0.026675
v -0.002573 0.023009 0.021127
v -0.143497 1.173995 -0.082806
v -0.163089 1.174069 -0.059865
v -0.154804 1.070556 -0.057437
v -0.129813 0.988400 -0.057595
v -0.108846 0.909849 -0.055486
v -0.093561 0.833979 -0.050879
v -0.081622 0.761150 -0.043552
v -0.071291 0.689274 -0.034659
v -0.061939 0.617261 -0.024953
v -0.052844 0.542758 -0.015730
v -0.042924 0.463092 -0.008009
v -0.032116 0.381124 -0.000869
v -0.022004 0.298955 0.008368
v -0.012901 0.214563 0.020215
v -0.002959 0.108331 0.017470
v -0.007237 0.016481 0.016375
v -0.173394 1.170951 -0.066045
v -0.168424 1.066972 -0.066378
v -0.142834 0.982293 -0.064346
v -0.122175 0.902216 -0.061905
v -0.107041 0.825773 -0.057420
v -0.095798 0.752702 -0.050083
v -0.085979 0.681026 -0.040842
v -0.076856 0.609441 -0.030592
v -0.067340 0.535020 -0.020746
v -0.056390 0.455832 -0.012318
v -0.044174 0.373806 -0.004960
v -0.032657 0.291034 0.003517
v -0.021240 0.205354 0.012482
v -0.008856 0.094227 0.006384
v -0.012495 0.011501 0.012430
v -0.180454 1.162160 -0.074104
v -0.174021 1.058035 -0.075829
v -0.151270 0.971332 -0.071235
v -0.132494 0.890501 -0.068369
v -0.118437 0.814101 -0.063798
v -0.108321 0.741020 -0.056309
v -0.099131 0.669750 -0.046709
v -0.090116 0.598658 -0.036052
v -0.079769 0.524377 -0.025789
v -0.067812 0.446058 -0.016969
v -0.054271 0.364158 -0.009726
v -0.041355 0.280330 -0.002666
v -0.026743 0.191350 0.001441
v -0.012173 0.080568 -0.005267
v -0.015972 0.005073 0.007793
v -0.183436 1.149476 -0.082761
v -0.171036 1.042869 -0.082241
v -0.154008 0.955482 -0.077148
v -0.138278 0.875288 -0.074318
v -0.126193 0.799474 -0.069672
v -0.117464 0.726483 -0.062172
v -0.108853 0.655715 -0.052411
v -0.099703 0.585044 -0.041595
v -0.088432 0.511349 -0.031241
v -0.075703 0.434088 -0.022354
v -0.061410 0.352789 -0.015494
v -0.047569 0.268181 -0.010462
v -0.029218 0.174706 -0.012343
v -0.013398 0.068075 -0.016375
v -0.018021 -0.001583 0.003107
v -0.178158 1.130103 -0.090034
v -0.163825 1.023302 -0.085189
v -0.152400 0.935913 -0.081688
v -0.139429 0.858165 -0.079142
v -0.129291 0.783157 -0.074577
v -0.121751 0.710044 -0.067496
v -0.113387 0.639695 -0.057935
v -0.103704 0.569402 -0.047318
v -0.091936 0.496762 -0.037187
v -0.078738 0.420635 -0.028367
v -0.064606 0.340566 -0.022094
v -0.050412 0.256040 -0.019523
v -0.028742 0.160003 -0.026131
v -0.012769 0.057525 -0.026044
v -0.018599 -0.008169 -0.001412
v -0.154312 1.090855 -0.088817
v -0.152706 0.999856 -0.084802
v -0.146697 0.916339 -0.083896
v -0.136434 0.841346 -0.082184
v -0.127727 0.766783 -0.078082
v -0.120581 0.693188 -0.071829
v -0.111935 0.623087 -0.062850
v -0.101431 0.553214 -0.052573
v -0.089549 0.481657 -0.042775
v -0.076415 0.406870 -0.034173
v -0.063135 0.328368 -0.028785
v -0.049267 0.244933 -0.028996
v -0.025410 0.148691 -0.038018
v -0.010340 0.049371 -0.033864
v -0.017654 -0.014494 -0.005603
v -0.143482 1.070941 -0.087505
v -0.144156 0.981117 -0.084138
v -0.139165 0.901692 -0.083835
v -0.130587 0.827075 -0.083145
v -0.122202 0.752213 -0.079650
v -0.114479 0.677705 -0.074385
v -0.105151 0.607510 -0.066087
v -0.093726 0.538196 -0.056093
v -0.082085 0.467605 -0.046788
v -0.069090 0.394064 -0.038404
v -0.056711 0.317003 -0.034317
v -0.043424 0.235079 -0.037574
v -0.019208 0.140676 -0.047172
v -0.006093 0.043733 -0.039672
v -0.015212 -0.020315 -0.009296
v -0.137474 1.059542 -0.087029
v -0.137292 0.967485 -0.083473
v -0.131542 0.890939 -0.082767
v -0.123030 0.816086 -0.082297
v -0.113921 0.740459 -0.079133
v -0.104796 0.664939 -0.074520
v -0.094281 0.594415 -0.066661
v -0.082032 0.525718 -0.056736
v -0.070185 0.455709 -0.047773
v -0.057584 0.383273 -0.039804
v -0.045783 0.307382 -0.037444
v -0.032884 0.226991 -0.043863
v -0.010217 0.135652 -0.053226
v -0.000042 0.040504 -0.043402
v -0.011382 -0.025340 -0.012313
v -0.132866 1.052921 -0.086702
v -0.130777 0.958771 -0.082353
v -0.123880 0.883621 -0.080912
v -0.114437 0.808499 -0.079972
v -0.103846 0.732261 -0.076550
v -0.092756 0.656428 -0.071618
v -0.080830 0.584899 -0.064112
v -0.067876 0.516565 -0.054300
v -0.055609 0.446840 -0.045621
v -0.043192 0.375271 -0.038202
v -0.031365 0.300305 -0.037538
v -0.018424 0.221324 -0.046862
v 0.001365 0.133352 -0.056093
v 0.007684 0.039493 -0.045057
v -0.006348 -0.029267 -0.014486
v -0.128396 1.049626 -0.086251
v -0.123942 0.954953 -0.080442
v -0.115990 0.879661 -0.078247
v -0.105217 0.804145 -0.076496
v -0.092819 0.727503 -0.072359
v -0.079702 0.651516 -0.066727
v -0.066099 0.579145 -0.059162
v -0.052376 0.510989 -0.049501
v -0.039371 0.441352 -0.041004
v -0.026806 0.370420 -0.034120
v -0.014672 0.296237 -0.034808
v -0.001355 0.218528 -0.046189
v 0.015043 0.133745 -0.055670
v 0.016606 0.040758 -0.044511
v -0.000350 -0.031593 -0.015636
v -0.036302 0.508831 -0.043482
v -0.022363 0.439162 -0.035229
v -0.009561 0.368692 -0.028879
v 0.027571 0.042695 -0.042684
v 0.005870 -0.033499 -0.015630
v -0.004317 -0.025043 0.019155
vt 0.750000 0.312500
vt 0.750000 0.375000
vt 0.718750 0.375000
vt 0.718750 0.312500
vt 0.750000 0.750000
vt 0.750000 0.812500
vt 0.718750 0.812500
vt 0.718750 0.750000
vt 0.750000 0.250000
vt 0.718750 0.250000
vt 0.750000 0.687500
vt 0.718750 0.687500
vt 0.750000 0.187500
vt 0.718750 0.187500
vt 0.750000 0.625000
vt 0.718750 0.625000
vt 0.750000 0.125000
vt 0.718750 0.125000
vt 0.750000 0.562500
vt 0.718750 0.562500
vt 0.750000 0.062500
vt 0.718750 0.062500
vt 0.750000 0.500000
vt 0.718750 0.500000
vt 0.750000 0.937500
vt 0.734375 1.000000
vt 0.718750 0.937500
vt 0.734375 0.000000
vt 0.750000 0.437500
vt 0.718750 0.437500
vt 0.750000 0.875000
vt 0.718750 0.875000
vt 0.687500 0.437500
vt 0.687500 0.375000
vt 0.687500 0.875000
vt 0.687500 0.812500
vt 0.687500 0.312500
vt 0.687500 0.750000
vt 0.687500 0.250000
vt 0.687500 0.687500
vt 0.687500 0.187500
vt 0.687500 0.625000
vt 0.687500 0.125000
vt 0.687500 0.562500
vt 0.687500 0.062500
vt 0.687500 0.500000
vt 0.703125 1.000000
vt 0.687500 0.937500
vt 0.703125 0.000000
vt 0.656250 0.187500
vt 0.656250 0.125000
vt 0.656250 0.625000
vt 0.656250 0.562500
vt 0.656250 0.062500
vt 0.656250 0.500000
vt 0.671875 1.000000
vt 0.656250 0.937500
vt 0.671875 0.000000
vt 0.656250 0.437500
vt 0.656250 0.875000
vt 0.656250 0.375000
vt 0.656250 0.812500
vt 0.656250 0.312500
vt 0.656250 0.750000
vt 0.656250 0.250000
vt 0.656250 0.687500
vt 0.625000 0.875000
vt 0.625000 0.812500
vt 0.625000 0.375000
vt 0.625000 0.312500
vt 0.625000 0.750000
vt 0.625000 0.250000
vt 0.625000 0.687500
vt 0.625000 0.187500
vt 0.625000 0.625000
vt 0.625000 0.125000
vt 0.625000 0.562500
vt 0.625000 0.062500
vt 0.625000 0.500000
vt 0.640625 1.000000
vt 0.625000 0.937500
vt 0.640625 0.000000
vt 0.625000 0.437500
vt 0.593750 0.625000
vt 0.593750 0.562500
vt 0.593750 0.125000
vt 0.593750 0.062500
vt 0.593750 0.500000
vt 0.609375 1.000000
vt 0.593750 0.937500
vt 0.609375 0.000000
vt 0.593750 0.437500
vt 0.593750 0.875000
vt 0.593750 0.375000
vt 0.593750 0.812500
vt 0.593750 0.312500
vt 0.593750 0.750000
vt 0.593750 0.250000
vt 0.593750 0.687500
vt 0.593750 0.187500
vt 0.562500 0.375000
vt 0.562500 0.312500
vt 0.562500 0.812500
vt 0.562500 0.750000
vt 0.562500 0.250000
vt 0.562500 0.687500
vt 0.562500 0.187500
vt 0.562500 0.625000
vt 0.562500 0.125000
vt 0.562500 0.562500
vt 0.562500 0.062500
vt 0.562500 0.500000
vt 0.578125 1.000000
vt 0.562500 0.937500
vt 0.578125 0.000000
vt 0.562500 0.437500
vt 0.562500 0.875000
vt 0.531250 0.125000
vt 0.531250 0.062500
vt 0.531250 0.562500
vt 0.531250 0.500000
vt 0.546875 1.000000
vt 0.531250 0.937500
vt 0.546875 0.000000
vt 0.531250 0.437500
vt 0.531250 0.875000
vt 0.531250 0.375000
vt 0.531250 0.812500
vt 0.531250 0.312500
vt 0.531250 0.750000
vt 0.531250 0.250000
vt 0.531250 0.687500
vt 0.531250 0.187500
vt 0.531250 0.625000
vt 0.500000 0.812500
vt 0.500000 0.750000
vt 0.500000 0.312500
vt 0.500000 0.250000
vt 0.500000 0.687500
vt 0.500000 0.187500
vt 0.500000 0.625000
vt 0.500000 0.125000
vt 0.500000 0.562500
vt 0.500000 0.062500
vt 0.500000 0.500000
vt 0.515625 1.000000
vt 0.500000 0.937500
vt 0.515625 0.000000
vt 0.500000 0.437500
vt 0.500000 0.875000
vt 0.500000 0.375000
vt 0.468750 0.562500
vt 0.468750 0.500000
vt 0.484375 1.000000
vt 0.468750 0.937500
vt 0.484375 0.000000
vt 0.468750 0.062500
vt 0.468750 0.437500
vt 0.468750 0.875000
vt 0.468750 0.375000
vt 0.468750 0.812500
vt 0.468750 0.312500
vt 0.468750 0.750000
vt 0.468750 0.250000
vt 0.468750 0.687500
vt 0.468750 0.187500
vt 0.468750 0.625000
vt 0.468750 0.125000
vt 0.437500 0.312500
vt 0.437500 0.250000
vt 0.437500 0.750000
vt 0.437500 0.687500
vt 0.437500 0.187500
vt 0.437500 0.625000
vt 0.437500 0.125000
vt 0.437500 0.562500
vt 0.437500 0.062500
vt 0.437500 0.500000
vt 0.453125 1.000000
vt 0.437500 0.937500
vt 0.453125 0.000000
vt 0.437500 0.437500
vt 0.437500 0.875000
vt 0.437500 0.375000
vt 0.437500 0.812500
vt 0.421875 0.000000
vt 0.406250 0.062500
vt 0.406250 0.500000
vt 0.406250 0.437500
vt 0.406250 0.937500
vt 0.406250 0.875000
vt 0.406250 0.375000
vt 0.406250 0.812500
vt 0.406250 0.312500
vt 0.406250 0.750000
vt 0.406250 0.250000
vt 0.406250 0.687500
vt 0.406250 0.187500
vt 0.406250 0.625000
vt 0.406250 0.125000
vt 0.406250 0.562500
vt 0.421875 1.000000
vt 0.375000 0.250000
vt 0.375000 0.187500
vt 0.375000 0.687500
vt 0.375000 0.625000
vt 0.375000 0.125000
vt 0.375000 0.562500
vt 0.375000 0.062500
vt 0.375000 0.500000
vt 0.390625 1.000000
vt 0.375000 0.937500
vt 0.390625 0.000000
vt 0.375000 0.437500
vt 0.375000 0.875000
vt 0.375000 0.375000
vt 0.375000 0.812500
vt 0.375000 0.312500
vt 0.375000 0.750000
vt 0.343750 0.937500
vt 0.343750 0.875000
vt 0.343750 0.437500
vt 0.343750 0.375000
vt 0.343750 0.812500
vt 0.343750 0.312500
vt 0.343750 0.750000
vt 0.343750 0.250000
vt 0.343750 0.687500
vt 0.343750 0.187500
vt 0.343750 0.625000
vt 0.343750 0.125000
vt 0.343750 0.562500
vt 0.343750 0.062500
vt 0.343750 0.500000
vt 0.359375 1.000000
vt 0.359375 0.000000
vt 0.312500 0.687500
vt 0.312500 0.625000
vt 0.312500 0.187500
vt 0.312500 0.125000
vt 0.312500 0.562500
vt 0.312500 0.062500
vt 0.312500 0.500000
vt 0.328125 1.000000
vt 0.312500 0.937500
vt 0.328125 0.000000
vt 0.312500 0.437500
vt 0.312500 0.875000
vt 0.312500 0.375000
vt 0.312500 0.812500
vt 0.312500 0.312500
vt 0.312500 0.750000
vt 0.312500 0.250000
vt 0.281250 0.437500
vt 0.281250 0.375000
vt 0.281250 0.875000
vt 0.281250 0.812500
vt 0.281250 0.312500
vt 0.281250 0.750000
vt 0.281250 0.250000
vt 0.281250 0.687500
vt 0.281250 0.187500
vt 0.281250 0.625000
vt 0.281250 0.125000
vt 0.281250 0.562500
vt 0.281250 0.062500
vt 0.281250 0.500000
vt 0.296875 1.000000
vt 0.281250 0.937500
vt 0.296875 0.000000
vt 0.250000 0.187500
vt 0.250000 0.125000
vt 0.250000 0.625000
vt 0.250000 0.562500
vt 0.250000 0.062500
vt 0.250000 0.500000
vt 0.265625 1.000000
vt 0.250000 0.937500
vt 0.265625 0.000000
vt 0.250000 0.437500
vt 0.250000 0.875000
vt 0.250000 0.375000
vt 0.250000 0.812500
vt 0.250000 0.312500
vt 0.250000 0.750000
vt 0.250000 0.250000
vt 0.250000 0.687500
vt 0.218750 0.875000
vt 0.218750 0.812500
vt 0.218750 0.375000
vt 0.218750 0.312500
vt 0.218750 0.750000
vt 0.218750 0.250000
vt 0.218750 0.687500
vt 0.218750 0.187500
vt 0.218750 0.625000
vt 0.218750 0.125000
vt 0.218750 0.562500
vt 0.218750 0.062500
vt 0.218750 0.500000
vt 0.234375 1.000000
vt 0.218750 0.937500
vt 0.234375 0.000000
vt 0.218750 0.437500
vt 0.187500 0.625000
vt 0.187500 0.562500
vt 0.187500 0.125000
vt 0.187500 0.062500
vt 0.187500 0.500000
vt 0.203125 1.000000
vt 0.187500 0.937500
vt 0.203125 0.000000
vt 0.187500 0.437500
vt 0.187500 0.875000
vt 0.187500 0.375000
vt 0.187500 0.812500
vt 0.187500 0.312500
vt 0.187500 0.750000
vt 0.187500 0.250000
vt 0.187500 0.687500
vt 0.187500 0.187500
vt 0.156250 0.375000
vt 0.156250 0.312500
vt 0.156250 0.812500
vt 0.156250 0.750000
vt 0.156250 0.250000
vt 0.156250 0.687500
vt 0.156250 0.187500
vt 0.156250 0.625000
vt 0.156250 0.125000
vt 0.156250 0.562500
vt 0.156250 0.062500
vt 0.156250 0.500000
vt 0.171875 1.000000
vt 0.156250 0.937500
vt 0.171875 0.000000
vt 0.156250 0.437500
vt 0.156250 0.875000
vt 0.125000 0.125000
vt 0.125000 0.062500
vt 0.125000 0.562500
vt 0.125000 0.500000
vt 0.140625 1.000000
vt 0.125000 0.937500
vt 0.140625 0.000000
vt 0.125000 0.437500
vt 0.125000 0.875000
vt 0.125000 0.375000
vt 0.125000 0.812500
vt 0.125000 0.312500
vt 0.125000 0.750000
vt 0.125000 0.250000
vt 0.125000 0.687500
vt 0.125000 0.187500
vt 0.125000 0.625000
vt 0.093750 0.312500
vt 0.093750 0.250000
vt 0.093750 0.750000
vt 0.093750 0.687500
vt 0.093750 0.187500
vt 0.093750 0.625000
vt 0.093750 0.125000
vt 0.093750 0.562500
vt 0.093750 0.062500
vt 0.093750 0.500000
vt 0.109375 1.000000
vt 0.093750 0.937500
vt 0.109375 0.000000
vt 0.093750 0.437500
vt 0.093750 0.875000
vt 0.093750 0.375000
vt 0.093750 0.812500
vt 0.078125 1.000000
vt 0.062500 0.937500
vt 0.078125 0.000000
vt 0.062500 0.062500
vt 0.062500 0.500000
vt 0.062500 0.437500
vt 0.062500 0.875000
vt 0.062500 0.375000
vt 0.062500 0.812500
vt 0.062500 0.312500
vt 0.062500 0.750000
vt 0.062500 0.250000
vt 0.062500 0.687500
vt 0.062500 0.187500
vt 0.062500 0.625000
vt 0.062500 0.125000
vt 0.062500 0.562500
vt 0.031250 0.750000
vt 0.031250 0.687500
vt 0.031250 0.250000
vt 0.031250 0.187500
vt 0.031250 0.625000
vt 0.031250 0.125000
vt 0.031250 0.562500
vt 0.031250 0.062500
vt 0.031250 0.500000
vt 0.046875 1.000000
vt 0.031250 0.937500
vt 0.046875 0.000000
vt 0.031250 0.437500
vt 0.031250 0.875000
vt 0.031250 0.375000
vt 0.031250 0.812500
vt 0.031250 0.312500
vt 0.000000 0.500000
vt 0.000000 0.437500
vt 0.000000 0.937500
vt 0.000000 0.875000
vt 0.000000 0.375000
vt 0.000000 0.812500
vt 0.000000 0.312500
vt 0.000000 0.750000
vt 0.000000 0.250000
vt 0.000000 0.687500
vt 0.000000 0.187500
vt 0.000000 0.625000
vt 0.000000 0.125000
vt 0.000000 0.562500
vt 0.000000 0.062500
vt 0.015625 1.000000
vt 0.015625 0.000000
vt 1.000000 0.187500
vt 1.000000 0.250000
vt 0.968750 0.250000
vt 0.968750 0.187500
vt 1.000000 0.625000
vt 1.000000 0.687500
vt 0.968750 0.687500
vt 0.968750 0.625000
vt 1.000000 0.125000
vt 0.968750 0.125000
vt 1.000000 0.562500
vt 0.968750 0.562500
vt 1.000000 0.062500
vt 0.968750 0.062500
vt 1.000000 0.500000
vt 0.968750 0.500000
vt 1.000000 0.937500
vt 0.984375 1.000000
vt 0.968750 0.937500
vt 0.984375 0.000000
vt 1.000000 0.437500
vt 0.968750 0.437500
vt 1.000000 0.875000
vt 0.968750 0.875000
vt 1.000000 0.375000
vt 0.968750 0.375000
vt 1.000000 0.812500
vt 0.968750 0.812500
vt 1.000000 0.312500
vt 0.968750 0.312500
vt 1.000000 0.750000
vt 0.968750 0.750000
vt 0.937500 0.937500
vt 0.937500 0.875000
vt 0.937500 0.437500
vt 0.937500 0.375000
vt 0.937500 0.812500
vt 0.937500 0.312500
vt 0.937500 0.750000
vt 0.937500 0.250000
vt 0.937500 0.687500
vt 0.937500 0.187500
vt 0.937500 0.625000
vt 0.937500 0.125000
vt 0.937500 0.562500
vt 0.937500 0.062500
vt 0.937500 0.500000
vt 0.953125 1.000000
vt 0.953125 0.000000
vt 0.906250 0.687500
vt 0.906250 0.625000
vt 0.906250 0.187500
vt 0.906250 0.125000
vt 0.906250 0.562500
vt 0.906250 0.062500
vt 0.906250 0.500000
vt 0.921875 1.000000
vt 0.906250 0.937500
vt 0.921875 0.000000
vt 0.906250 0.437500
vt 0.906250 0.875000
vt 0.906250 0.375000
vt 0.906250 0.812500
vt 0.906250 0.312500
vt 0.906250 0.750000
vt 0.906250 0.250000
vt 0.875000 0.437500
vt 0.875000 0.375000
vt 0.875000 0.875000
vt 0.875000 0.812500
vt 0.875000 0.312500
vt 0.875000 0.750000
vt 0.875000 0.250000
vt 0.875000 0.687500
vt 0.875000 0.187500
vt 0.875000 0.625000
vt 0.875000 0.125000
vt 0.875000 0.562500
vt 0.875000 0.062500
vt 0.875000 0.500000
vt 0.890625 1.000000
vt 0.875000 0.937500
vt 0.890625 0.000000
vt 0.843750 0.187500
vt 0.843750 0.125000
vt 0.843750 0.625000
vt 0.843750 0.562500
vt 0.843750 0.062500
vt 0.843750 0.500000
vt 0.859375 1.000000
vt 0.843750 0.937500
vt 0.859375 0.000000
vt 0.843750 0.437500
vt 0.843750 0.875000
vt 0.843750 0.375000
vt 0.843750 0.812500
vt 0.843750 0.312500
vt 0.843750 0.750000
vt 0.843750 0.250000
vt 0.843750 0.687500
vt 0.812500 0.375000
vt 0.812500 0.312500
vt 0.812500 0.812500
vt 0.812500 0.750000
vt 0.812500 0.250000
vt 0.812500 0.687500
vt 0.812500 0.187500
vt 0.812500 0.625000
vt 0.812500 0.125000
vt 0.812500 0.562500
vt 0.812500 0.062500
vt 0.812500 0.500000
vt 0.828125 1.000000
vt 0.812500 0.937500
vt 0.828125 0.000000
vt 0.812500 0.437500
vt 0.812500 0.875000
vt 0.781250 0.125000
vt 0.781250 0.062500
vt 0.781250 0.562500
vt 0.781250 0.500000
vt 0.796875 1.000000
vt 0.781250 0.937500
vt 0.796875 0.000000
vt 0.781250 0.437500
vt 0.781250 0.875000
vt 0.781250 0.375000
vt 0.781250 0.812500
vt 0.781250 0.312500
vt 0.781250 0.750000
vt 0.781250 0.250000
vt 0.781250 0.687500
vt 0.781250 0.187500
vt 0.781250 0.625000
vt 0.765625 1.000000
vt 0.765625 0.000000
vn 0.3086 0.0687 -0.9487
vn 0.4168 0.0323 -0.9084
vn 0.3089 0.2005 -0.9297
vn 0.4376 0.0217 -0.8989
vn 0.3252 0.1683 -0.9305
vn 0.4366 0.0121 -0.8996
vn 0.4066 -0.1081 -0.9072
vn 0.4192 -0.0086 -0.9079
vn 0.3742 -0.3864 -0.8430
vn 0.3864 -0.0376 -0.9216
vn 0.1614 0.0478 -0.9857
vn 0.0735 -0.9639 0.2559
vn 0.3490 -0.0367 -0.9364
vn 0.2906 -0.0624 -0.9548
vn 0.3226 -0.0239 -0.9462
vn 0.3738 0.0031 -0.9275
vn 0.3199 -0.0210 -0.9472
vn 0.3744 -0.0054 -0.9272
vn 0.3199 0.0648 -0.9452
vn 0.4174 0.0277 -0.9083
vn 0.3570 0.1899 -0.9146
vn 0.4379 0.0206 -0.8988
vn 0.4146 0.1771 -0.8926
vn 0.4326 0.0139 -0.9015
vn 0.5217 -0.1132 -0.8456
vn 0.4129 -0.0035 -0.9107
vn 0.4852 -0.3705 -0.7921
vn 0.3809 -0.0279 -0.9242
vn 0.1753 0.0505 -0.9832
vn 0.2383 -0.9139 0.3288
vn 0.3414 -0.0299 -0.9394
vn 0.3080 -0.0709 -0.9487
vn 0.6183 -0.1199 -0.7767
vn 0.3999 -0.0010 -0.9165
vn 0.6190 -0.3665 -0.6946
vn 0.3709 -0.0202 -0.9285
vn 0.1784 0.0513 -0.9826
vn 0.3147 -0.8691 0.3816
vn 0.3358 -0.0236 -0.9416
vn 0.3092 -0.0799 -0.9476
vn 0.3220 -0.0201 -0.9465
vn 0.3677 -0.0159 -0.9298
vn 0.3336 0.0539 -0.9412
vn 0.4078 0.0206 -0.9128
vn 0.3970 0.1651 -0.9029
vn 0.4282 0.0172 -0.9035
vn 0.4793 0.1759 -0.8599
vn 0.4195 0.0138 -0.9076
vn 0.3599 -0.0267 -0.9326
vn 0.3629 0.0422 -0.9309
vn 0.3970 0.0128 -0.9177
vn 0.4430 0.1361 -0.8861
vn 0.4181 0.0136 -0.9083
vn 0.5370 0.1674 -0.8268
vn 0.4099 0.0144 -0.9120
vn 0.6932 -0.1308 -0.7088
vn 0.3951 0.0028 -0.9187
vn 0.7172 -0.3696 -0.5908
vn 0.3712 -0.0113 -0.9285
vn 0.1961 0.0567 -0.9789
vn 0.3776 -0.8099 0.4489
vn 0.3433 -0.0159 -0.9391
vn 0.3222 -0.0845 -0.9429
vn 0.3400 -0.0179 -0.9403
vn 0.4016 0.0079 -0.9158
vn 0.7938 -0.3806 -0.4743
vn 0.3892 0.0003 -0.9212
vn 0.2000 0.0581 -0.9781
vn 0.4110 -0.7565 0.5087
vn 0.3750 -0.0039 -0.9270
vn 0.3245 -0.0890 -0.9417
vn 0.3857 -0.0108 -0.9226
vn 0.3569 -0.0361 -0.9335
vn 0.4192 0.0356 -0.9072
vn 0.3897 0.0055 -0.9209
vn 0.5127 0.1124 -0.8512
vn 0.4127 0.0108 -0.9108
vn 0.6207 0.1571 -0.7682
vn 0.4068 0.0160 -0.9134
vn 0.7704 -0.1483 -0.6201
vn 0.5068 0.0376 -0.8613
vn 0.3892 -0.0004 -0.9211
vn 0.6114 0.0987 -0.7851
vn 0.4161 0.0101 -0.9093
vn 0.7258 0.1480 -0.6718
vn 0.4179 0.0207 -0.9083
vn 0.8510 -0.1680 -0.4975
vn 0.4282 0.0167 -0.9036
vn 0.8541 -0.3993 -0.3332
vn 0.4314 0.0164 -0.9020
vn 0.2185 0.0657 -0.9736
vn 0.4248 -0.7108 0.5607
vn 0.4367 0.0140 -0.8995
vn 0.3459 -0.0869 -0.9342
vn 0.4638 0.0037 -0.8859
vn 0.3611 -0.0429 -0.9315
vn 0.8931 -0.4218 -0.1566
vn 0.5001 0.0380 -0.8651
vn 0.2371 0.0745 -0.9686
vn 0.4260 -0.6679 0.6103
vn 0.5303 0.0391 -0.8469
vn 0.3698 -0.0810 -0.9256
vn 0.5776 0.0275 -0.8159
vn 0.3751 -0.0464 -0.9258
vn 0.6305 0.0516 -0.7745
vn 0.4002 -0.0032 -0.9164
vn 0.7414 0.0983 -0.6638
vn 0.4321 0.0127 -0.9018
vn 0.8539 0.1445 -0.5000
vn 0.4453 0.0291 -0.8949
vn 0.9312 -0.1840 -0.3147
vn 0.4760 0.0299 -0.8790
vn 0.4228 -0.0027 -0.9062
vn 0.8814 0.1112 -0.4590
vn 0.4637 0.0198 -0.8857
vn 0.9588 0.1437 -0.2451
vn 0.4948 0.0437 -0.8679
vn 0.9790 -0.1827 -0.0910
vn 0.5539 0.0510 -0.8310
vn 0.8964 -0.4396 0.0575
vn 0.6001 0.0681 -0.7970
vn 0.2617 0.0876 -0.9612
vn 0.4172 -0.6261 0.6587
vn 0.6551 0.0731 -0.7520
vn 0.4116 -0.0670 -0.9089
vn 0.7222 0.0617 -0.6889
vn 0.4050 -0.0443 -0.9133
vn 0.7810 0.0784 -0.6196
vn 0.7244 0.1074 -0.6809
vn 0.2906 0.1047 -0.9511
vn 0.4058 -0.5997 0.6897
vn 0.8031 0.1171 -0.5842
vn 0.4601 -0.0481 -0.8866
vn 0.8812 0.1065 -0.4606
vn 0.4488 -0.0363 -0.8929
vn 0.9353 0.1193 -0.3333
vn 0.4639 0.0038 -0.8859
vn 0.9825 0.1373 -0.1260
vn 0.5150 0.0330 -0.8566
vn 0.9862 0.1456 0.0786
vn 0.5692 0.0664 -0.8195
vn 0.9721 -0.1615 0.1701
vn 0.6585 0.0807 -0.7482
vn 0.8477 -0.4358 0.3026
vn 0.9399 0.1630 0.3001
vn 0.5917 0.0557 -0.8042
vn 0.9001 0.1499 0.4091
vn 0.6744 0.1016 -0.7313
vn 0.9429 -0.1169 0.3118
vn 0.7988 0.1270 -0.5880
vn 0.7965 -0.4350 0.4200
vn 0.8727 0.1629 -0.4602
vn 0.3296 0.1303 -0.9351
vn 0.3562 -0.5236 0.7739
vn 0.9443 0.1710 -0.2810
vn 0.5347 -0.0161 -0.8449
vn 0.9858 0.1547 -0.0659
vn 0.5218 -0.0174 -0.8529
vn 0.9799 0.1592 0.1200
vn 0.5285 0.0188 -0.8487
vn 0.3503 -0.5165 0.7813
vn 0.9592 0.2126 0.1866
vn 0.6332 0.0301 -0.7734
vn 0.8725 0.1756 0.4560
vn 0.6196 0.0141 -0.7848
vn 0.7616 0.1659 0.6264
vn 0.6327 0.0482 -0.7729
vn 0.6948 0.1702 0.6988
vn 0.7181 0.1014 -0.6885
vn 0.7051 0.1551 0.6919
vn 0.8188 0.1601 -0.5513
vn 0.8215 -0.0633 0.5667
vn 0.9394 0.1900 -0.2855
vn 0.6263 -0.3993 0.6696
vn 0.9704 0.2230 -0.0931
vn 0.3791 0.1665 -0.9102
vn 0.4328 0.1566 0.8878
vn 0.9525 0.2427 -0.1838
vn 0.5995 -0.0069 0.8003
vn 0.9408 0.2489 0.2301
vn 0.4889 -0.3640 0.7928
vn 0.8484 0.2543 0.4642
vn 0.4595 0.2317 -0.8574
vn 0.2446 -0.4125 0.8775
vn 0.6948 0.2029 0.6901
vn 0.7815 0.1109 -0.6139
vn 0.5399 0.1475 0.8287
vn 0.7846 0.0796 -0.6149
vn 0.4152 0.1351 0.8997
vn 0.8024 0.1074 -0.5870
vn 0.3785 0.1554 0.9125
vn 0.8766 0.1749 -0.4482
vn 0.9436 0.2482 -0.2190
vn 0.2323 0.1044 0.9670
vn 0.9622 0.1899 -0.1952
vn 0.1376 0.0996 0.9855
vn 0.9713 0.2063 -0.1188
vn 0.1198 0.1335 0.9838
vn 0.9493 0.2782 0.1465
vn 0.1884 0.1536 0.9700
vn 0.8244 0.3018 0.4789
vn 0.3472 0.0331 0.9372
vn 0.6422 0.2418 0.7274
vn 0.2918 -0.3052 0.9065
vn 0.5143 0.2164 0.8298
vn 0.6113 0.3735 -0.6977
vn 0.2013 -0.3748 0.9050
vn 0.3673 0.1575 0.9167
vn 0.4214 0.2512 0.8714
vn 0.1137 0.0571 0.9919
vn 0.2769 0.1887 0.9422
vn 0.1263 -0.2450 0.9613
vn 0.1954 0.1608 0.9675
vn 0.7705 0.5803 -0.2638
vn 0.1182 -0.3109 0.9431
vn 0.0926 0.1095 0.9897
vn 0.8710 0.3509 0.3438
vn 0.0085 0.0683 0.9976
vn 0.8500 0.2678 0.4537
vn -0.0445 0.0720 0.9964
vn 0.7342 0.2520 0.6304
vn -0.0539 0.1150 0.9919
vn 0.5842 0.2697 0.7655
vn 0.0081 0.1510 0.9885
vn -0.1266 0.0446 0.9910
vn 0.5369 0.2442 0.8075
vn -0.1603 0.0525 0.9857
vn 0.3488 0.1988 0.9159
vn -0.1658 0.1012 0.9810
vn 0.1826 0.1909 0.9645
vn -0.1248 0.1482 0.9811
vn 0.0752 0.1775 0.9812
vn -0.0686 0.0663 0.9954
vn 0.0110 0.1389 0.9902
vn -0.0157 -0.1893 0.9818
vn -0.0321 0.1157 0.9928
vn 0.7131 0.6476 0.2685
vn 0.0209 -0.2432 0.9697
vn -0.0816 0.0766 0.9937
vn 0.6493 0.3541 0.6731
vn -0.1809 0.0662 0.9813
vn -0.1628 0.1024 0.9813
vn -0.1292 -0.1436 0.9812
vn -0.1861 0.0840 0.9789
vn 0.5657 0.6045 0.5609
vn -0.0790 -0.1801 0.9805
vn -0.2090 0.0533 0.9765
vn 0.4720 0.3262 0.8190
vn -0.2235 0.0285 0.9743
vn 0.3032 0.1953 0.9327
vn -0.2331 0.0398 0.9716
vn 0.0978 0.1436 0.9848
vn -0.2336 0.0922 0.9680
vn -0.0453 0.1310 0.9903
vn -0.2017 0.1478 0.9682
vn -0.1207 0.1277 0.9844
vn 0.1476 0.1454 0.9783
vn -0.2767 0.0326 0.9604
vn -0.0517 0.0986 0.9938
vn -0.2723 0.0868 0.9583
vn -0.1828 0.0883 0.9792
vn -0.2554 0.1474 0.9555
vn -0.2530 0.0895 0.9633
vn -0.2579 0.0598 0.9643
vn -0.2839 0.0757 0.9559
vn -0.2171 -0.1087 0.9701
vn -0.2893 0.0635 0.9551
vn 0.4365 0.5528 0.7098
vn -0.1712 -0.1277 0.9769
vn -0.2882 0.0405 0.9567
vn 0.3339 0.2908 0.8966
vn -0.2820 0.0208 0.9592
vn -0.3599 0.0581 0.9312
vn -0.2859 -0.0829 0.9547
vn -0.3567 0.0522 0.9328
vn 0.4131 0.5444 0.7300
vn -0.2491 -0.0890 0.9644
vn -0.3386 0.0355 0.9403
vn 0.2450 0.2592 0.9342
vn -0.3153 0.0192 0.9488
vn 0.0377 0.0955 0.9947
vn -0.2968 0.0307 0.9545
vn -0.1526 0.0580 0.9866
vn -0.2882 0.0847 0.9538
vn -0.2746 0.0544 0.9600
vn -0.2809 0.1473 0.9484
vn -0.3359 0.0623 0.9398
vn -0.3049 0.0497 0.9511
vn -0.3010 0.0326 0.9531
vn -0.2235 0.0195 0.9745
vn -0.2913 0.0842 0.9529
vn -0.3327 0.0275 0.9426
vn -0.2977 0.1455 0.9435
vn -0.3877 0.0427 0.9208
vn -0.3442 0.0350 0.9383
vn -0.4056 0.0474 0.9128
vn -0.3484 -0.0620 0.9353
vn -0.3950 0.0484 0.9174
vn 0.5581 0.5721 0.6010
vn -0.3166 -0.0613 0.9466
vn -0.3654 0.0374 0.9301
vn 0.2024 0.2299 0.9519
vn -0.3291 0.0229 0.9440
vn -0.0471 0.0440 0.9979
vn -0.4235 -0.0407 0.9050
vn -0.4095 0.0508 0.9109
vn 0.7923 0.5241 0.3125
vn -0.3866 -0.0393 0.9214
vn -0.3736 0.0447 0.9265
vn 0.1849 0.1847 0.9652
vn -0.3296 0.0304 0.9436
vn -0.1275 -0.0120 0.9918
vn -0.2968 0.0370 0.9542
vn -0.2782 -0.0167 0.9604
vn -0.2914 0.0836 0.9529
vn -0.3679 0.0060 0.9298
vn -0.3185 0.1391 0.9377
vn -0.4131 0.0303 0.9102
vn -0.3934 0.0148 0.9192
vn -0.4243 0.0436 0.9045
vn -0.2995 0.0801 0.9507
vn -0.3854 -0.0098 0.9227
vn -0.3607 0.1235 0.9245
vn -0.4214 0.0239 0.9066
vn -0.4771 -0.0145 0.8787
vn -0.4266 0.0446 0.9034
vn -0.5469 -0.0129 0.8371
vn -0.4080 0.0576 0.9112
vn 0.7755 0.5374 0.3315
vn -0.4943 -0.0177 0.8691
vn -0.3696 0.0553 0.9276
vn -0.0122 0.0884 0.9960
vn -0.3239 0.0398 0.9453
vn -0.2373 -0.0697 0.9689
vn -0.2925 0.0416 0.9554
vn -0.3205 -0.0468 0.9461
vn 0.3586 0.8828 0.3034
vn -0.7116 -0.0030 0.7026
vn -0.3635 0.0660 0.9293
vn -0.3016 0.0083 0.9534
vn -0.3213 0.0481 0.9458
vn -0.3477 -0.1092 0.9312
vn -0.2988 0.0431 0.9534
vn -0.3585 -0.0679 0.9311
vn -0.3289 0.0697 0.9418
vn -0.3976 -0.0212 0.9173
vn -0.4448 0.0905 0.8911
vn -0.4245 0.0215 0.9052
vn -0.6219 -0.0588 0.7809
vn -0.4229 0.0488 0.9049
vn -0.7681 0.0239 0.6399
vn -0.4010 0.0668 0.9136
vn -0.4207 -0.0299 0.9067
vn -0.5716 0.0314 0.8200
vn -0.4375 0.0208 0.8990
vn -0.7282 -0.1024 0.6777
vn -0.4284 0.0538 0.9020
vn -0.8331 0.0534 0.5505
vn -0.4045 0.0746 0.9115
vn -0.1923 0.9670 -0.1673
vn -0.6066 0.0106 0.7950
vn -0.3731 0.0718 0.9250
vn -0.5290 -0.0252 0.8482
vn -0.3403 0.0507 0.9389
vn -0.4671 -0.1318 0.8743
vn -0.3313 0.0368 0.9428
vn -0.4111 -0.0818 0.9079
vn -0.3931 0.0471 0.9183
vn -0.4240 0.0655 0.9033
vn -0.7852 -0.0491 0.6173
vn -0.4061 0.0409 0.9129
vn -0.6489 -0.1542 0.7451
vn -0.4131 0.0162 0.9105
vn -0.4995 -0.0940 0.8612
vn -0.5081 0.0058 0.8613
vn -0.4771 -0.0391 0.8780
vn -0.7283 -0.0574 0.6828
vn -0.4803 0.0188 0.8769
vn -0.8583 -0.1329 0.4956
vn -0.4650 0.0546 0.8836
vn -0.9513 0.0806 0.2974
vn -0.4448 0.0742 0.8925
vn -0.3691 0.7715 -0.5182
vn -0.7629 -0.0521 0.6444
vn -0.8359 -0.1446 0.5294
vn -0.5805 0.0087 0.8142
vn -0.9390 -0.1466 0.3112
vn -0.5667 0.0411 0.8229
vn -0.9910 0.0814 0.1067
vn -0.5588 0.0537 0.8275
vn -0.3583 0.5823 -0.7297
vn -0.8352 -0.1208 0.5366
vn -0.5529 0.0352 0.8325
vn -0.9825 -0.0887 0.1637
vn -0.5547 0.0067 0.8320
vn -0.8847 -0.1782 0.4307
vn -0.5693 -0.0261 0.8217
vn -0.6453 -0.1116 0.7557
vn -0.6650 -0.0522 0.7450
vn -0.5889 -0.0523 0.8065
vn -0.8214 -0.1169 -0.5582
vn -0.8012 -0.0668 0.5947
vn -0.9541 -0.1675 -0.2482
vn -0.8036 -0.0937 0.5878
vn -0.8548 -0.1383 0.5002
vn -0.8509 -0.1180 0.5118
vn -0.7862 -0.0784 0.6129
vn -0.9168 -0.2089 0.3404
vn -0.7740 -0.0230 0.6327
vn -0.9815 -0.1514 0.1168
vn -0.7687 -0.0049 0.6396
vn -0.9961 0.0544 -0.0692
vn -0.7828 -0.0100 0.6222
vn -0.1856 0.3006 -0.9355
vn -0.8763 -0.2179 0.4298
vn -0.7912 -0.0391 0.6103
vn -0.9940 -0.0946 0.0542
vn -0.9790 -0.1534 -0.1346
vn -0.9889 -0.1061 0.1036
vn -0.9654 -0.0085 -0.2608
vn -0.9890 -0.1327 0.0656
vn 0.1385 0.0535 -0.9889
vn -0.8794 -0.3472 0.3258
vn -0.9870 -0.1576 0.0308
vn -0.0402 -0.0479 -0.9980
vn -0.9853 -0.1694 0.0219
vn -0.2292 -0.0484 -0.9722
vn -0.9849 -0.1668 0.0475
vn -0.8831 -0.1467 -0.4456
vn -0.9836 -0.1633 0.0762
vn -0.9909 -0.1274 -0.0440
vn -0.9715 -0.2334 0.0413
vn -0.7319 -0.2034 -0.6503
vn 0.0345 -0.0051 -0.9994
vn -0.7448 -0.1623 -0.6472
vn -0.1387 -0.0334 -0.9898
vn -0.8346 -0.1258 -0.5364
vn -0.4415 -0.0959 -0.8921
vn -0.8892 -0.1832 -0.4193
vn -0.5957 -0.1215 -0.7939
vn -0.8702 -0.1528 -0.4683
vn -0.7224 -0.1749 -0.6690
vn -0.8698 -0.1088 -0.4812
vn -0.7405 -0.2097 -0.6386
vn 0.2007 0.0447 -0.9786
vn -0.8335 -0.4996 0.2361
vn -0.7250 -0.2082 -0.6565
vn 0.0207 -0.0407 -0.9990
vn -0.5937 -0.1434 -0.7918
vn -0.2104 -0.1407 -0.9674
vn -0.6716 -0.2278 -0.7050
vn -0.2564 -0.1810 -0.9495
vn 0.1633 0.0450 -0.9855
vn -0.7317 -0.6599 0.1705
vn -0.2353 -0.1638 -0.9580
vn 0.0145 -0.0381 -0.9992
vn -0.2430 -0.1500 -0.9584
vn 0.1221 0.0020 -0.9925
vn -0.2691 -0.0830 -0.9595
vn 0.1364 0.0079 -0.9906
vn -0.4097 -0.0117 -0.9121
vn 0.0271 -0.0410 -0.9988
vn -0.5605 -0.0571 -0.8262
vn -0.0805 -0.0745 -0.9940
vn 0.0455 -0.0129 -0.9989
vn 0.2688 0.0231 -0.9629
vn -0.0680 0.0872 -0.9939
vn 0.2463 -0.0101 -0.9691
vn -0.2039 0.0531 -0.9775
vn 0.2174 -0.0325 -0.9755
vn -0.2468 -0.1276 -0.9606
vn 0.1523 -0.0825 -0.9849
vn -0.3845 -0.3235 -0.8645
vn 0.0938 -0.1250 -0.9877
vn 0.1328 0.0435 -0.9902
vn -0.5721 -0.8088 0.1361
vn 0.0894 -0.1096 -0.9900
vn 0.0726 -0.0414 -0.9965
vn 0.0744 -0.0932 -0.9929
vn 0.2093 0.0036 -0.9778
vn -0.0641 -0.3754 -0.9246
vn 0.2778 -0.0822 -0.9571
vn 0.1320 0.0435 -0.9903
vn -0.3350 -0.9321 0.1373
vn 0.2607 -0.0714 -0.9628
vn 0.1760 -0.0468 -0.9833
vn 0.2409 -0.0550 -0.9690
vn 0.2999 0.0065 -0.9540
vn 0.2103 0.0340 -0.9770
vn 0.3507 0.0303 -0.9360
vn 0.1295 0.1512 -0.9800
vn 0.3571 0.0075 -0.9340
vn 0.0445 0.1168 -0.9922
vn 0.3496 -0.0095 -0.9369
vn 0.0510 -0.1157 -0.9920
vn 0.3190 -0.0426 -0.9468
vn 0.3924 0.0325 -0.9192
vn 0.2288 0.1866 -0.9554
vn 0.4072 0.0162 -0.9132
vn 0.1923 0.1475 -0.9702
vn 0.4039 0.0026 -0.9148
vn 0.2084 -0.1099 -0.9718
vn 0.3899 -0.0212 -0.9206
vn 0.0991 -0.3731 -0.9225
vn 0.3611 -0.0546 -0.9309
vn 0.1389 0.0443 -0.9893
vn -0.2901 -0.9460 0.1450
vn 0.3296 -0.0496 -0.9428
vn 0.2395 -0.0547 -0.9693
vn 0.3023 -0.0349 -0.9526
vn 0.3487 0.0065 -0.9372
vn 0.2762 0.0590 -0.9593
usemtl Material.001
s off
f 8/1/1 479/2/1 20/3/1 21/4/1
f 4/5/2 3/6/2 13/7/2 14/8/2
f 9/9/3 8/1/3 21/4/3 22/10/3
f 5/11/4 4/5/4 14/8/4 15/12/4
f 10/13/5 9/9/5 22/10/5 23/14/5
f 6/15/6 5/11/6 15/12/6 16/16/6
f 480/17/7 10/13/7 23/14/7 24/18/7
f 7/19/8 6/15/8 16/16/8 17/20/8
f 481/21/9 480/17/9 24/18/9 25/22/9
f 477/23/10 7/19/10 17/20/10 18/24/10
f 1/25/11 326/26/11 11/27/11
f 482/28/12 481/21/12 25/22/12
f 478/29/13 477/23/13 18/24/13 19/30/13
f 2/31/14 1/25/14 11/27/14 12/32/14
f 479/2/15 478/29/15 19/30/15 20/3/15
f 3/6/16 2/31/16 12/32/16 13/7/16
f 20/3/17 19/30/17 34/33/17 35/34/17
f 13/7/18 12/32/18 27/35/18 28/36/18
f 21/4/19 20/3/19 35/34/19 36/37/19
f 14/8/20 13/7/20 28/36/20 29/38/20
f 22/10/21 21/4/21 36/37/21 37/39/21
f 15/12/22 14/8/22 29/38/22 30/40/22
f 23/14/23 22/10/23 37/39/23 38/41/23
f 16/16/24 15/12/24 30/40/24 31/42/24
f 24/18/25 23/14/25 38/41/25 39/43/25
f 17/20/26 16/16/26 31/42/26 32/44/26
f 25/22/27 24/18/27 39/43/27 40/45/27
f 18/24/28 17/20/28 32/44/28 33/46/28
f 11/27/29 326/47/29 26/48/29
f 482/49/30 25/22/30 40/45/30
f 19/30/31 18/24/31 33/46/31 34/33/31
f 12/32/32 11/27/32 26/48/32 27/35/32
f 39/43/33 38/41/33 53/50/33 54/51/33
f 32/44/34 31/42/34 46/52/34 47/53/34
f 40/45/35 39/43/35 54/51/35 55/54/35
f 33/46/36 32/44/36 47/53/36 48/55/36
f 26/48/37 326/56/37 41/57/37
f 482/58/38 40/45/38 55/54/38
f 34/33/39 33/46/39 48/55/39 49/59/39
f 27/35/40 26/48/40 41/57/40 42/60/40
f 35/34/41 34/33/41 49/59/41 50/61/41
f 28/36/42 27/35/42 42/60/42 43/62/42
f 36/37/43 35/34/43 50/61/43 51/63/43
f 29/38/44 28/36/44 43/62/44 44/64/44
f 37/39/45 36/37/45 51/63/45 52/65/45
f 30/40/46 29/38/46 44/64/46 45/66/46
f 38/41/47 37/39/47 52/65/47 53/50/47
f 31/42/48 30/40/48 45/66/48 46/52/48
f 43/62/49 42/60/49 57/67/49 58/68/49
f 51/63/50 50/61/50 65/69/50 66/70/50
f 44/64/51 43/62/51 58/68/51 59/71/51
f 52/65/52 51/63/52 66/70/52 67/72/52
f 45/66/53 44/64/53 59/71/53 60/73/53
f 53/50/54 52/65/54 67/72/54 68/74/54
f 46/52/55 45/66/55 60/73/55 61/75/55
f 54/51/56 53/50/56 68/74/56 69/76/56
f 47/53/57 46/52/57 61/75/57 62/77/57
f 55/54/58 54/51/58 69/76/58 70/78/58
f 48/55/59 47/53/59 62/77/59 63/79/59
f 41/57/60 326/80/60 56/81/60
f 482/82/61 55/54/61 70/78/61
f 49/59/62 48/55/62 63/79/62 64/83/62
f 42/60/63 41/57/63 56/81/63 57/67/63
f 50/61/64 49/59/64 64/83/64 65/69/64
f 62/77/65 61/75/65 76/84/65 77/85/65
f 70/78/66 69/76/66 84/86/66 85/87/66
f 63/79/67 62/77/67 77/85/67 78/88/67
f 56/81/68 326/89/68 71/90/68
f 482/91/69 70/78/69 85/87/69
f 64/83/70 63/79/70 78/88/70 79/92/70
f 57/67/71 56/81/71 71/90/71 72/93/71
f 65/69/72 64/83/72 79/92/72 80/94/72
f 58/68/73 57/67/73 72/93/73 73/95/73
f 66/70/74 65/69/74 80/94/74 81/96/74
f 59/71/75 58/68/75 73/95/75 74/97/75
f 67/72/76 66/70/76 81/96/76 82/98/76
f 60/73/77 59/71/77 74/97/77 75/99/77
f 68/74/78 67/72/78 82/98/78 83/100/78
f 61/75/79 60/73/79 75/99/79 76/84/79
f 69/76/80 68/74/80 83/100/80 84/86/80
f 81/96/81 80/94/81 95/101/81 96/102/81
f 74/97/82 73/95/82 88/103/82 89/104/82
f 82/98/83 81/96/83 96/102/83 97/105/83
f 75/99/84 74/97/84 89/104/84 90/106/84
f 83/100/85 82/98/85 97/105/85 98/107/85
f 76/84/86 75/99/86 90/106/86 91/108/86
f 84/86/87 83/100/87 98/107/87 99/109/87
f 77/85/88 76/84/88 91/108/88 92/110/88
f 85/87/89 84/86/89 99/109/89 100/111/89
f 78/88/90 77/85/90 92/110/90 93/112/90
f 71/90/91 326/113/91 86/114/91
f 482/115/92 85/87/92 100/111/92
f 79/92/93 78/88/93 93/112/93 94/116/93
f 72/93/94 71/90/94 86/114/94 87/117/94
f 80/94/95 79/92/95 94/116/95 95/101/95
f 73/95/96 72/93/96 87/117/96 88/103/96
f 100/111/97 99/109/97 114/118/97 115/119/97
f 93/112/98 92/110/98 107/120/98 108/121/98
f 86/114/99 326/122/99 101/123/99
f 482/124/100 100/111/100 115/119/100
f 94/116/101 93/112/101 108/121/101 109/125/101
f 87/117/102 86/114/102 101/123/102 102/126/102
f 95/101/103 94/116/103 109/125/103 110/127/103
f 88/103/104 87/117/104 102/126/104 103/128/104
f 96/102/105 95/101/105 110/127/105 111/129/105
f 89/104/106 88/103/106 103/128/106 104/130/106
f 97/105/107 96/102/107 111/129/107 112/131/107
f 90/106/108 89/104/108 104/130/108 105/132/108
f 98/107/109 97/105/109 112/131/109 113/133/109
f 91/108/110 90/106/110 105/132/110 106/134/110
f 99/109/111 98/107/111 113/133/111 114/118/111
f 92/110/112 91/108/112 106/134/112 107/120/112
f 104/130/113 103/128/113 118/135/113 119/136/113
f 112/131/114 111/129/114 126/137/114 127/138/114
f 105/132/115 104/130/115 119/136/115 120/139/115
f 113/133/116 112/131/116 127/138/116 128/140/116
f 106/134/117 105/132/117 120/139/117 121/141/117
f 114/118/118 113/133/118 128/140/118 129/142/118
f 107/120/119 106/134/119 121/141/119 122/143/119
f 115/119/120 114/118/120 129/142/120 130/144/120
f 108/121/121 107/120/121 122/143/121 123/145/121
f 101/123/122 326/146/122 116/147/122
f 482/148/123 115/119/123 130/144/123
f 109/125/124 108/121/124 123/145/124 124/149/124
f 102/126/125 101/123/125 116/147/125 117/150/125
f 110/127/126 109/125/126 124/149/126 125/151/126
f 103/128/127 102/126/127 117/150/127 118/135/127
f 111/129/128 110/127/128 125/151/128 126/137/128
f 123/145/129 122/143/129 137/152/129 138/153/129
f 116/147/130 326/154/130 131/155/130
f 482/156/131 130/144/131 145/157/131
f 124/149/132 123/145/132 138/153/132 139/158/132
f 117/150/133 116/147/133 131/155/133 132/159/133
f 125/151/134 124/149/134 139/158/134 140/160/134
f 118/135/135 117/150/135 132/159/135 133/161/135
f 126/137/136 125/151/136 140/160/136 141/162/136
f 119/136/137 118/135/137 133/161/137 134/163/137
f 127/138/138 126/137/138 141/162/138 142/164/138
f 120/139/139 119/136/139 134/163/139 135/165/139
f 128/140/140 127/138/140 142/164/140 143/166/140
f 121/141/141 120/139/141 135/165/141 136/167/141
f 129/142/142 128/140/142 143/166/142 144/168/142
f 122/143/143 121/141/143 136/167/143 137/152/143
f 130/144/144 129/142/144 144/168/144 145/157/144
f 142/164/145 141/162/145 156/169/145 157/170/145
f 135/165/146 134/163/146 149/171/146 150/172/146
f 143/166/147 142/164/147 157/170/147 158/173/147
f 136/167/148 135/165/148 150/172/148 151/174/148
f 144/168/149 143/166/149 158/173/149 159/175/149
f 137/152/150 136/167/150 151/174/150 152/176/150
f 145/157/151 144/168/151 159/175/151 160/177/151
f 138/153/152 137/152/152 152/176/152 153/178/152
f 131/155/153 326/179/153 146/180/153
f 482/181/154 145/157/154 160/177/154
f 139/158/155 138/153/155 153/178/155 154/182/155
f 132/159/156 131/155/156 146/180/156 147/183/156
f 140/160/157 139/158/157 154/182/157 155/184/157
f 133/161/158 132/159/158 147/183/158 148/185/158
f 141/162/159 140/160/159 155/184/159 156/169/159
f 134/163/160 133/161/160 148/185/160 149/171/160
f 482/186/161 160/177/161 175/187/161
f 154/182/162 153/178/162 168/188/162 169/189/162
f 147/183/163 146/180/163 161/190/163 162/191/163
f 155/184/164 154/182/164 169/189/164 170/192/164
f 148/185/165 147/183/165 162/191/165 163/193/165
f 156/169/166 155/184/166 170/192/166 171/194/166
f 149/171/167 148/185/167 163/193/167 164/195/167
f 157/170/168 156/169/168 171/194/168 172/196/168
f 150/172/169 149/171/169 164/195/169 165/197/169
f 158/173/170 157/170/170 172/196/170 173/198/170
f 151/174/171 150/172/171 165/197/171 166/199/171
f 159/175/172 158/173/172 173/198/172 174/200/172
f 152/176/173 151/174/173 166/199/173 167/201/173
f 160/177/174 159/175/174 174/200/174 175/187/174
f 153/178/175 152/176/175 167/201/175 168/188/175
f 146/180/176 326/202/176 161/190/176
f 173/198/177 172/196/177 187/203/177 188/204/177
f 166/199/178 165/197/178 180/205/178 181/206/178
f 174/200/179 173/198/179 188/204/179 189/207/179
f 167/201/180 166/199/180 181/206/180 182/208/180
f 175/187/181 174/200/181 189/207/181 190/209/181
f 168/188/182 167/201/182 182/208/182 183/210/182
f 161/190/183 326/211/183 176/212/183
f 482/213/184 175/187/184 190/209/184
f 169/189/185 168/188/185 183/210/185 184/214/185
f 162/191/186 161/190/186 176/212/186 177/215/186
f 170/192/187 169/189/187 184/214/187 185/216/187
f 163/193/188 162/191/188 177/215/188 178/217/188
f 171/194/189 170/192/189 185/216/189 186/218/189
f 164/195/190 163/193/190 178/217/190 179/219/190
f 172/196/191 171/194/191 186/218/191 187/203/191
f 165/197/192 164/195/192 179/219/192 180/205/192
f 177/215/193 176/212/193 191/220/193 192/221/193
f 185/216/194 184/214/194 199/222/194 200/223/194
f 178/217/195 177/215/195 192/221/195 193/224/195
f 186/218/196 185/216/196 200/223/196 201/225/196
f 179/219/197 178/217/197 193/224/197 194/226/197
f 187/203/198 186/218/198 201/225/198 202/227/198
f 180/205/199 179/219/199 194/226/199 195/228/199
f 188/204/200 187/203/200 202/227/200 203/229/200
f 181/206/201 180/205/201 195/228/201 196/230/201
f 189/207/202 188/204/202 203/229/202 204/231/202
f 182/208/203 181/206/203 196/230/203 197/232/203
f 190/209/204 189/207/204 204/231/204 205/233/204
f 183/210/205 182/208/205 197/232/205 198/234/205
f 176/212/206 326/235/206 191/220/206
f 482/236/207 190/209/207 205/233/207
f 184/214/208 183/210/208 198/234/208 199/222/208
f 196/230/209 195/228/209 210/237/209 211/238/209
f 204/231/210 203/229/210 218/239/210 219/240/210
f 197/232/211 196/230/211 211/238/211 212/241/211
f 205/233/212 204/231/212 219/240/212 220/242/212
f 198/234/213 197/232/213 212/241/213 213/243/213
f 191/220/214 326/244/214 206/245/214
f 482/246/215 205/233/215 220/242/215
f 199/222/216 198/234/216 213/243/216 214/247/216
f 192/221/217 191/220/217 206/245/217 207/248/217
f 200/223/218 199/222/218 214/247/218 215/249/218
f 193/224/219 192/221/219 207/248/219 208/250/219
f 201/225/220 200/223/220 215/249/220 216/251/220
f 194/226/221 193/224/221 208/250/221 209/252/221
f 202/227/222 201/225/222 216/251/222 217/253/222
f 195/228/223 194/226/223 209/252/223 210/237/223
f 203/229/224 202/227/224 217/253/224 218/239/224
f 215/249/225 214/247/225 229/254/225 230/255/225
f 208/250/226 207/248/226 222/256/226 223/257/226
f 216/251/227 215/249/227 230/255/227 231/258/227
f 209/252/228 208/250/228 223/257/228 224/259/228
f 217/253/229 216/251/229 231/258/229 232/260/229
f 210/237/230 209/252/230 224/259/230 225/261/230
f 218/239/231 217/253/231 232/260/231 233/262/231
f 211/238/232 210/237/232 225/261/232 226/263/232
f 219/240/233 218/239/233 233/262/233 234/264/233
f 212/241/234 211/238/234 226/263/234 227/265/234
f 220/242/235 219/240/235 234/264/235 235/266/235
f 213/243/236 212/241/236 227/265/236 228/267/236
f 206/245/237 326/268/237 221/269/237
f 482/270/238 220/242/238 235/266/238
f 214/247/239 213/243/239 228/267/239 229/254/239
f 207/248/240 206/245/240 221/269/240 222/256/240
f 234/264/241 233/262/241 248/271/241 249/272/241
f 227/265/242 226/263/242 241/273/242 242/274/242
f 235/266/243 234/264/243 249/272/243 250/275/243
f 228/267/244 227/265/244 242/274/244 243/276/244
f 221/269/245 326/277/245 236/278/245
f 482/279/246 235/266/246 250/275/246
f 229/254/247 228/267/247 243/276/247 244/280/247
f 222/256/248 221/269/248 236/278/248 237/281/248
f 230/255/249 229/254/249 244/280/249 245/282/249
f 223/257/250 222/256/250 237/281/250 238/283/250
f 231/258/251 230/255/251 245/282/251 246/284/251
f 224/259/252 223/257/252 238/283/252 239/285/252
f 232/260/253 231/258/253 246/284/253 247/286/253
f 225/261/254 224/259/254 239/285/254 240/287/254
f 233/262/255 232/260/255 247/286/255 248/271/255
f 226/263/256 225/261/256 240/287/256 241/273/256
f 238/283/257 237/281/257 252/288/257 253/289/257
f 246/284/258 245/282/258 260/290/258 261/291/258
f 239/285/259 238/283/259 253/289/259 254/292/259
f 247/286/260 246/284/260 261/291/260 262/293/260
f 240/287/261 239/285/261 254/292/261 255/294/261
f 248/271/262 247/286/262 262/293/262 263/295/262
f 241/273/263 240/287/263 255/294/263 256/296/263
f 249/272/264 248/271/264 263/295/264 264/297/264
f 242/274/265 241/273/265 256/296/265 257/298/265
f 250/275/266 249/272/266 264/297/266 265/299/266
f 243/276/267 242/274/267 257/298/267 258/300/267
f 236/278/268 326/301/268 251/302/268
f 482/303/269 250/275/269 265/299/269
f 244/280/270 243/276/270 258/300/270 259/304/270
f 237/281/271 236/278/271 251/302/271 252/288/271
f 245/282/272 244/280/272 259/304/272 260/290/272
f 257/298/273 256/296/273 271/305/273 272/306/273
f 265/299/274 264/297/274 279/307/274 280/308/274
f 258/300/275 257/298/275 272/306/275 273/309/275
f 251/302/276 326/310/276 266/311/276
f 482/312/277 265/299/277 280/308/277
f 259/304/278 258/300/278 273/309/278 274/313/278
f 252/288/279 251/302/279 266/311/279 267/314/279
f 260/290/280 259/304/280 274/313/280 275/315/280
f 253/289/281 252/288/281 267/314/281 268/316/281
f 261/291/282 260/290/282 275/315/282 276/317/282
f 254/292/283 253/289/283 268/316/283 269/318/283
f 262/293/284 261/291/284 276/317/284 277/319/284
f 255/294/285 254/292/285 269/318/285 270/320/285
f 263/295/286 262/293/286 277/319/286 278/321/286
f 256/296/287 255/294/287 270/320/287 271/305/287
f 264/297/288 263/295/288 278/321/288 279/307/288
f 276/317/289 275/315/289 290/322/289 291/323/289
f 269/318/290 268/316/290 283/324/290 284/325/290
f 277/319/291 276/317/291 291/323/291 292/326/291
f 270/320/292 269/318/292 284/325/292 285/327/292
f 278/321/293 277/319/293 292/326/293 293/328/293
f 271/305/294 270/320/294 285/327/294 286/329/294
f 279/307/295 278/321/295 293/328/295 294/330/295
f 272/306/296 271/305/296 286/329/296 287/331/296
f 280/308/297 279/307/297 294/330/297 295/332/297
f 273/309/298 272/306/298 287/331/298 288/333/298
f 266/311/299 326/334/299 281/335/299
f 482/336/300 280/308/300 295/332/300
f 274/313/301 273/309/301 288/333/301 289/337/301
f 267/314/302 266/311/302 281/335/302 282/338/302
f 275/315/303 274/313/303 289/337/303 290/322/303
f 268/316/304 267/314/304 282/338/304 283/324/304
f 295/332/305 294/330/305 309/339/305 310/340/305
f 288/333/306 287/331/306 302/341/306 303/342/306
f 281/335/307 326/343/307 296/344/307
f 482/345/308 295/332/308 310/340/308
f 289/337/309 288/333/309 303/342/309 304/346/309
f 282/338/310 281/335/310 296/344/310 297/347/310
f 290/322/311 289/337/311 304/346/311 305/348/311
f 283/324/312 282/338/312 297/347/312 298/349/312
f 291/323/313 290/322/313 305/348/313 306/350/313
f 284/325/314 283/324/314 298/349/314 299/351/314
f 292/326/315 291/323/315 306/350/315 307/352/315
f 285/327/316 284/325/316 299/351/316 300/353/316
f 293/328/317 292/326/317 307/352/317 308/354/317
f 286/329/318 285/327/318 300/353/318 301/355/318
f 294/330/319 293/328/319 308/354/319 309/339/319
f 287/331/320 286/329/320 301/355/320 302/341/320
f 307/352/321 306/350/321 321/356/321 322/357/321
f 300/353/322 299/351/322 314/358/322 315/359/322
f 308/354/323 307/352/323 322/357/323 323/360/323
f 301/355/324 300/353/324 315/359/324 316/361/324
f 309/339/325 308/354/325 323/360/325 324/362/325
f 302/341/326 301/355/326 316/361/326 317/363/326
f 310/340/327 309/339/327 324/362/327 325/364/327
f 303/342/328 302/341/328 317/363/328 318/365/328
f 296/344/329 326/366/329 311/367/329
f 482/368/330 310/340/330 325/364/330
f 304/346/331 303/342/331 318/365/331 319/369/331
f 297/347/332 296/344/332 311/367/332 312/370/332
f 305/348/333 304/346/333 319/369/333 320/371/333
f 298/349/334 297/347/334 312/370/334 313/372/334
f 306/350/335 305/348/335 320/371/335 321/356/335
f 299/351/336 298/349/336 313/372/336 314/358/336
f 311/367/337 326/373/337 327/374/337
f 482/375/338 325/364/338 341/376/338
f 319/369/339 318/365/339 334/377/339 335/378/339
f 312/370/340 311/367/340 327/374/340 328/379/340
f 320/371/341 319/369/341 335/378/341 336/380/341
f 313/372/342 312/370/342 328/379/342 329/381/342
f 321/356/343 320/371/343 336/380/343 337/382/343
f 314/358/344 313/372/344 329/381/344 330/383/344
f 322/357/345 321/356/345 337/382/345 338/384/345
f 315/359/346 314/358/346 330/383/346 331/385/346
f 323/360/347 322/357/347 338/384/347 339/386/347
f 316/361/348 315/359/348 331/385/348 332/387/348
f 324/362/349 323/360/349 339/386/349 340/388/349
f 317/363/350 316/361/350 332/387/350 333/389/350
f 325/364/351 324/362/351 340/388/351 341/376/351
f 318/365/352 317/363/352 333/389/352 334/377/352
f 331/385/353 330/383/353 345/390/353 346/391/353
f 339/386/354 338/384/354 353/392/354 354/393/354
f 332/387/355 331/385/355 346/391/355 347/394/355
f 340/388/356 339/386/356 354/393/356 355/395/356
f 333/389/357 332/387/357 347/394/357 348/396/357
f 341/376/358 340/388/358 355/395/358 356/397/358
f 334/377/359 333/389/359 348/396/359 349/398/359
f 327/374/360 326/399/360 342/400/360
f 482/401/361 341/376/361 356/397/361
f 335/378/362 334/377/362 349/398/362 350/402/362
f 328/379/363 327/374/363 342/400/363 343/403/363
f 336/380/364 335/378/364 350/402/364 351/404/364
f 329/381/365 328/379/365 343/403/365 344/405/365
f 337/382/366 336/380/366 351/404/366 352/406/366
f 330/383/367 329/381/367 344/405/367 345/390/367
f 338/384/368 337/382/368 352/406/368 353/392/368
f 350/402/369 349/398/369 364/407/369 365/408/369
f 343/403/370 342/400/370 357/409/370 358/410/370
f 351/404/371 350/402/371 365/408/371 366/411/371
f 344/405/372 343/403/372 358/410/372 359/412/372
f 352/406/373 351/404/373 366/411/373 367/413/373
f 345/390/374 344/405/374 359/412/374 360/414/374
f 353/392/375 352/406/375 367/413/375 368/415/375
f 346/391/376 345/390/376 360/414/376 361/416/376
f 354/393/377 353/392/377 368/415/377 369/417/377
f 347/394/378 346/391/378 361/416/378 362/418/378
f 355/395/379 354/393/379 369/417/379 370/419/379
f 348/396/380 347/394/380 362/418/380 363/420/380
f 356/397/381 355/395/381 370/419/381 371/421/381
f 349/398/382 348/396/382 363/420/382 364/407/382
f 342/400/383 326/422/383 357/409/383
f 482/423/384 356/397/384 371/421/384
f 369/424/385 368/425/385 383/426/385 384/427/385
f 362/428/386 361/429/386 376/430/386 377/431/386
f 370/432/387 369/424/387 384/427/387 385/433/387
f 363/434/388 362/428/388 377/431/388 378/435/388
f 371/436/389 370/432/389 385/433/389 386/437/389
f 364/438/390 363/434/390 378/435/390 379/439/390
f 357/440/391 326/441/391 372/442/391
f 482/443/392 371/436/392 386/437/392
f 365/444/393 364/438/393 379/439/393 380/445/393
f 358/446/394 357/440/394 372/442/394 373/447/394
f 366/448/395 365/444/395 380/445/395 381/449/395
f 359/450/396 358/446/396 373/447/396 374/451/396
f 367/452/397 366/448/397 381/449/397 382/453/397
f 360/454/398 359/450/398 374/451/398 375/455/398
f 368/425/399 367/452/399 382/453/399 383/426/399
f 361/429/400 360/454/400 375/455/400 376/430/400
f 373/447/401 372/442/401 387/456/401 388/457/401
f 381/449/402 380/445/402 395/458/402 396/459/402
f 374/451/403 373/447/403 388/457/403 389/460/403
f 382/453/404 381/449/404 396/459/404 397/461/404
f 375/455/405 374/451/405 389/460/405 390/462/405
f 383/426/406 382/453/406 397/461/406 398/463/406
f 376/430/407 375/455/407 390/462/407 391/464/407
f 384/427/408 383/426/408 398/463/408 399/465/408
f 377/431/409 376/430/409 391/464/409 392/466/409
f 385/433/410 384/427/410 399/465/410 400/467/410
f 378/435/411 377/431/411 392/466/411 393/468/411
f 386/437/412 385/433/412 400/467/412 401/469/412
f 379/439/413 378/435/413 393/468/413 394/470/413
f 372/442/414 326/471/414 387/456/414
f 482/472/415 386/437/415 401/469/415
f 380/445/416 379/439/416 394/470/416 395/458/416
f 392/466/417 391/464/417 406/473/417 407/474/417
f 400/467/418 399/465/418 414/475/418 415/476/418
f 393/468/419 392/466/419 407/474/419 408/477/419
f 401/469/420 400/467/420 415/476/420 416/478/420
f 394/470/421 393/468/421 408/477/421 409/479/421
f 387/456/422 326/480/422 402/481/422
f 482/482/423 401/469/423 416/478/423
f 395/458/424 394/470/424 409/479/424 410/483/424
f 388/457/425 387/456/425 402/481/425 403/484/425
f 396/459/426 395/458/426 410/483/426 411/485/426
f 389/460/427 388/457/427 403/484/427 404/486/427
f 397/461/428 396/459/428 411/485/428 412/487/428
f 390/462/429 389/460/429 404/486/429 405/488/429
f 398/463/430 397/461/430 412/487/430 413/489/430
f 391/464/431 390/462/431 405/488/431 406/473/431
f 399/465/432 398/463/432 413/489/432 414/475/432
f 411/485/433 410/483/433 425/490/433 426/491/433
f 404/486/434 403/484/434 418/492/434 419/493/434
f 412/487/435 411/485/435 426/491/435 427/494/435
f 405/488/436 404/486/436 419/493/436 420/495/436
f 413/489/437 412/487/437 427/494/437 428/496/437
f 406/473/438 405/488/438 420/495/438 421/497/438
f 414/475/439 413/489/439 428/496/439 429/498/439
f 407/474/440 406/473/440 421/497/440 422/499/440
f 415/476/441 414/475/441 429/498/441 430/500/441
f 408/477/442 407/474/442 422/499/442 423/501/442
f 416/478/443 415/476/443 430/500/443 431/502/443
f 409/479/444 408/477/444 423/501/444 424/503/444
f 402/481/445 326/504/445 417/505/445
f 482/506/446 416/478/446 431/502/446
f 410/483/447 409/479/447 424/503/447 425/490/447
f 403/484/448 402/481/448 417/505/448 418/492/448
f 430/500/449 429/498/449 444/507/449 445/508/449
f 423/501/450 422/499/450 437/509/450 438/510/450
f 431/502/451 430/500/451 445/508/451 446/511/451
f 424/503/452 423/501/452 438/510/452 439/512/452
f 417/505/453 326/513/453 432/514/453
f 482/515/454 431/502/454 446/511/454
f 425/490/455 424/503/455 439/512/455 440/516/455
f 418/492/456 417/505/456 432/514/456 433/517/456
f 426/491/457 425/490/457 440/516/457 441/518/457
f 419/493/458 418/492/458 433/517/458 434/519/458
f 427/494/459 426/491/459 441/518/459 442/520/459
f 420/495/460 419/493/460 434/519/460 435/521/460
f 428/496/461 427/494/461 442/520/461 443/522/461
f 421/497/462 420/495/462 435/521/462 436/523/462
f 429/498/463 428/496/463 443/522/463 444/507/463
f 422/499/464 421/497/464 436/523/464 437/509/464
f 442/520/465 441/518/465 456/524/465 457/525/465
f 435/521/466 434/519/466 449/526/466 450/527/466
f 443/522/467 442/520/467 457/525/467 458/528/467
f 436/523/468 435/521/468 450/527/468 451/529/468
f 444/507/469 443/522/469 458/528/469 459/530/469
f 437/509/470 436/523/470 451/529/470 452/531/470
f 445/508/471 444/507/471 459/530/471 460/532/471
f 438/510/472 437/509/472 452/531/472 453/533/472
f 446/511/473 445/508/473 460/532/473 461/534/473
f 439/512/474 438/510/474 453/533/474 454/535/474
f 432/514/475 326/536/475 447/537/475
f 482/538/476 446/511/476 461/534/476
f 440/516/477 439/512/477 454/535/477 455/539/477
f 433/517/478 432/514/478 447/537/478 448/540/478
f 441/518/479 440/516/479 455/539/479 456/524/479
f 434/519/480 433/517/480 448/540/480 449/526/480
f 461/534/481 460/532/481 475/541/481 476/542/481
f 454/535/482 453/533/482 468/543/482 469/544/482
f 447/537/483 326/545/483 462/546/483
f 482/547/484 461/534/484 476/542/484
f 455/539/485 454/535/485 469/544/485 470/548/485
f 448/540/486 447/537/486 462/546/486 463/549/486
f 456/524/487 455/539/487 470/548/487 471/550/487
f 449/526/488 448/540/488 463/549/488 464/551/488
f 457/525/489 456/524/489 471/550/489 472/552/489
f 450/527/490 449/526/490 464/551/490 465/553/490
f 458/528/491 457/525/491 472/552/491 473/554/491
f 451/529/492 450/527/492 465/553/492 466/555/492
f 459/530/493 458/528/493 473/554/493 474/556/493
f 452/531/494 451/529/494 466/555/494 467/557/494
f 460/532/495 459/530/495 474/556/495 475/541/495
f 453/533/496 452/531/496 467/557/496 468/543/496
f 465/553/497 464/551/497 3/6/497 4/5/497
f 473/554/498 472/552/498 8/1/498 9/9/498
f 466/555/499 465/553/499 4/5/499 5/11/499
f 474/556/500 473/554/500 9/9/500 10/13/500
f 467/557/501 466/555/501 5/11/501 6/15/501
f 475/541/502 474/556/502 10/13/502 480/17/502
f 468/543/503 467/557/503 6/15/503 7/19/503
f 476/542/504 475/541/504 480/17/504 481/21/504
f 469/544/505 468/543/505 7/19/505 477/23/505
f 462/546/506 326/558/506 1/25/506
f 482/559/507 476/542/507 481/21/507
f 470/548/508 469/544/508 477/23/508 478/29/508
f 463/549/509 462/546/509 1/25/509 2/31/509
f 471/550/510 470/548/510 478/29/510 479/2/510
f 464/551/511 463/549/511 2/31/511 3/6/511
f 472/552/512 471/550/512 479/2/512 8/1/512
